solid OpenSCAD_Model
  facet normal 0.42578 0.904827 -0
    outer loop
      vertex -15.7134 10.7546 -21
      vertex -17.5279 11.6085 -5.60845
      vertex -15.7134 10.7546 -4.75462
    endloop
  endfacet
  facet normal 0.42578 0.904827 0
    outer loop
      vertex -17.5279 11.6085 -5.60845
      vertex -15.7134 10.7546 -21
      vertex -17.5279 11.6085 -21
    endloop
  endfacet
  facet normal 0.992115 0.125334 0
    outer loop
      vertex -12 4 -8
      vertex -12.2513 5.98952 -21
      vertex -12.2513 5.98952 -7.74866
    endloop
  endfacet
  facet normal 0.992115 0.125334 0
    outer loop
      vertex -12.2513 5.98952 -21
      vertex -12 4 -8
      vertex -12 4 -21
    endloop
  endfacet
  facet normal 0.42578 -0.904827 0
    outer loop
      vertex -15.7134 -10.7546 -21
      vertex -17.5279 -11.6085 -5.60845
      vertex -17.5279 -11.6085 -21
    endloop
  endfacet
  facet normal 0.42578 -0.904827 0
    outer loop
      vertex -17.5279 -11.6085 -5.60845
      vertex -15.7134 -10.7546 -21
      vertex -15.7134 -10.7546 -4.75462
    endloop
  endfacet
  facet normal 1 -0 0
    outer loop
      vertex -12 -4 -8
      vertex -12 4 -21
      vertex -12 4 -8
    endloop
  endfacet
  facet normal 1 0 0
    outer loop
      vertex -12 4 -21
      vertex -12 -4 -8
      vertex -12 -4 -21
    endloop
  endfacet
  facet normal 0.637424 -0.770513 2.12203e-07
    outer loop
      vertex -15.7134 -10.7546 -4.75462
      vertex -14.1683 -9.47638 -5.83175
      vertex -15.4573 -10.5427 -4.54274
    endloop
  endfacet
  facet normal 0.637424 -0.770514 0
    outer loop
      vertex -15.7134 -10.7546 -21
      vertex -14.1683 -9.47638 -5.83175
      vertex -15.7134 -10.7546 -4.75462
    endloop
  endfacet
  facet normal 0.637424 -0.770514 0
    outer loop
      vertex -14.1683 -9.47638 -5.83175
      vertex -15.7134 -10.7546 -21
      vertex -14.1683 -9.47638 -21
    endloop
  endfacet
  facet normal 0.809017 -0.587785 0
    outer loop
      vertex -14.1683 -9.47638 -21
      vertex -12.9895 -7.85403 -7.01045
      vertex -14.1683 -9.47638 -5.83175
    endloop
  endfacet
  facet normal 0.809017 -0.587785 0
    outer loop
      vertex -12.9895 -7.85403 -7.01045
      vertex -14.1683 -9.47638 -21
      vertex -12.9895 -7.85403 -21
    endloop
  endfacet
  facet normal 0.929777 -0.368124 0
    outer loop
      vertex -12.9895 -7.85403 -21
      vertex -12.2513 -5.98952 -7.74866
      vertex -12.9895 -7.85403 -7.01045
    endloop
  endfacet
  facet normal 0.929777 -0.368124 0
    outer loop
      vertex -12.2513 -5.98952 -7.74866
      vertex -12.9895 -7.85403 -21
      vertex -12.2513 -5.98952 -21
    endloop
  endfacet
  facet normal 0.992115 -0.125334 0
    outer loop
      vertex -12.2513 -5.98952 -21
      vertex -12 -4 -8
      vertex -12.2513 -5.98952 -7.74866
    endloop
  endfacet
  facet normal 0.992115 -0.125334 0
    outer loop
      vertex -12 -4 -8
      vertex -12.2513 -5.98952 -21
      vertex -12 -4 -21
    endloop
  endfacet
  facet normal 0.809017 0.587785 0
    outer loop
      vertex -12.9895 7.85403 -7.01045
      vertex -14.1683 9.47638 -21
      vertex -14.1683 9.47638 -5.83175
    endloop
  endfacet
  facet normal 0.809017 0.587785 0
    outer loop
      vertex -14.1683 9.47638 -21
      vertex -12.9895 7.85403 -7.01045
      vertex -12.9895 7.85403 -21
    endloop
  endfacet
  facet normal 0.637424 0.770513 2.12203e-07
    outer loop
      vertex -14.1683 9.47638 -5.83175
      vertex -15.7134 10.7546 -4.75462
      vertex -15.4573 10.5427 -4.54274
    endloop
  endfacet
  facet normal 0.637424 0.770514 0
    outer loop
      vertex -15.7134 10.7546 -21
      vertex -14.1683 9.47638 -5.83175
      vertex -14.1683 9.47638 -21
    endloop
  endfacet
  facet normal 0.637424 0.770514 0
    outer loop
      vertex -14.1683 9.47638 -5.83175
      vertex -15.7134 10.7546 -21
      vertex -15.7134 10.7546 -4.75462
    endloop
  endfacet
  facet normal -0.0627912 0.998027 0
    outer loop
      vertex -20 11.9526 -21
      vertex -19.4977 11.9842 -5.98421
      vertex -19.4977 11.9842 -21
    endloop
  endfacet
  facet normal -0.0627912 0.998027 0
    outer loop
      vertex -19.4977 11.9842 -5.98421
      vertex -20 11.9526 -21
      vertex -20 11.9526 -5.95261
    endloop
  endfacet
  facet normal 0.187381 0.982287 -0
    outer loop
      vertex -17.5279 11.6085 -21
      vertex -19.4977 11.9842 -5.98421
      vertex -17.5279 11.6085 -5.60845
    endloop
  endfacet
  facet normal 0.187381 0.982287 0
    outer loop
      vertex -19.4977 11.9842 -5.98421
      vertex -17.5279 11.6085 -21
      vertex -19.4977 11.9842 -21
    endloop
  endfacet
  facet normal -0.0627912 -0.998027 0
    outer loop
      vertex -20 -11.9526 -21
      vertex -19.4977 -11.9842 -5.98421
      vertex -20 -11.9526 -5.95261
    endloop
  endfacet
  facet normal -0.0627912 -0.998027 -0
    outer loop
      vertex -19.4977 -11.9842 -5.98421
      vertex -20 -11.9526 -21
      vertex -19.4977 -11.9842 -21
    endloop
  endfacet
  facet normal 0.187381 -0.982287 0
    outer loop
      vertex -17.5279 -11.6085 -21
      vertex -19.4977 -11.9842 -5.98421
      vertex -19.4977 -11.9842 -21
    endloop
  endfacet
  facet normal 0.187381 -0.982287 0
    outer loop
      vertex -19.4977 -11.9842 -5.98421
      vertex -17.5279 -11.6085 -21
      vertex -17.5279 -11.6085 -5.60845
    endloop
  endfacet
  facet normal 0.929777 0.368124 0
    outer loop
      vertex -12.2513 5.98952 -7.74866
      vertex -12.9895 7.85403 -21
      vertex -12.9895 7.85403 -7.01045
    endloop
  endfacet
  facet normal 0.929777 0.368124 0
    outer loop
      vertex -12.9895 7.85403 -21
      vertex -12.2513 5.98952 -7.74866
      vertex -12.2513 5.98952 -21
    endloop
  endfacet
  facet normal 0.707107 0 0.707107
    outer loop
      vertex -20 6 -7.34788e-16
      vertex -14.1683 9.47638 -5.83175
      vertex -15.4573 10.5427 -4.54274
    endloop
  endfacet
  facet normal 0.707107 -4.63197e-17 0.707107
    outer loop
      vertex -14.1683 9.47638 -5.83175
      vertex -20 6 -7.34788e-16
      vertex -12.9895 7.85403 -7.01045
    endloop
  endfacet
  facet normal 0.707107 0 0.707107
    outer loop
      vertex -20 6 -7.34788e-16
      vertex -12.2513 5.98952 -7.74866
      vertex -12.9895 7.85403 -7.01045
    endloop
  endfacet
  facet normal 0.707107 0 0.707107
    outer loop
      vertex -20 6 -7.34788e-16
      vertex -12 4 -8
      vertex -12.2513 5.98952 -7.74866
    endloop
  endfacet
  facet normal 0.707107 0 0.707107
    outer loop
      vertex -20 6 -7.34788e-16
      vertex -12 -4 -8
      vertex -12 4 -8
    endloop
  endfacet
  facet normal 0.707107 8.65956e-17 0.707107
    outer loop
      vertex -20 -6 7.34788e-16
      vertex -12 -4 -8
      vertex -20 6 -7.34788e-16
    endloop
  endfacet
  facet normal 0.707107 0 0.707107
    outer loop
      vertex -12 -4 -8
      vertex -20 -6 7.34788e-16
      vertex -12.2513 -5.98952 -7.74866
    endloop
  endfacet
  facet normal 0.707107 0 0.707107
    outer loop
      vertex -20 -6 7.34788e-16
      vertex -12.9895 -7.85403 -7.01045
      vertex -12.2513 -5.98952 -7.74866
    endloop
  endfacet
  facet normal 0.707107 0 0.707107
    outer loop
      vertex -20 -6 7.34788e-16
      vertex -14.1683 -9.47638 -5.83175
      vertex -12.9895 -7.85403 -7.01045
    endloop
  endfacet
  facet normal 0.707107 -5.86959e-17 0.707107
    outer loop
      vertex -14.1683 -9.47638 -5.83175
      vertex -20 -6 7.34788e-16
      vertex -15.4573 -10.5427 -4.54274
    endloop
  endfacet
  facet normal -7.38505e-17 0.707107 0.707107
    outer loop
      vertex -15.7134 10.7546 -4.75462
      vertex -20 6 -7.34788e-16
      vertex -15.4573 10.5427 -4.54274
    endloop
  endfacet
  facet normal -5.11131e-17 0.707107 0.707107
    outer loop
      vertex -17.5279 11.6085 -5.60845
      vertex -20 6 -7.34788e-16
      vertex -15.7134 10.7546 -4.75462
    endloop
  endfacet
  facet normal -2.62195e-17 0.707107 0.707107
    outer loop
      vertex -19.4977 11.9842 -5.98421
      vertex -20 6 -7.34788e-16
      vertex -17.5279 11.6085 -5.60845
    endloop
  endfacet
  facet normal -6.74795e-07 0.707107 0.707107
    outer loop
      vertex -20 6 -7.34788e-16
      vertex -19.4977 11.9842 -5.98421
      vertex -20 11.9526 -5.95261
    endloop
  endfacet
  facet normal 0 -0.707107 0.707107
    outer loop
      vertex -20 -6 7.34788e-16
      vertex -15.7134 -10.7546 -4.75462
      vertex -15.4573 -10.5427 -4.54274
    endloop
  endfacet
  facet normal 0 -0.707107 0.707107
    outer loop
      vertex -20 -6 7.34788e-16
      vertex -17.5279 -11.6085 -5.60845
      vertex -15.7134 -10.7546 -4.75462
    endloop
  endfacet
  facet normal -6.74795e-07 -0.707107 0.707107
    outer loop
      vertex -19.4977 -11.9842 -5.98421
      vertex -20 -6 7.34788e-16
      vertex -20 -11.9526 -5.95261
    endloop
  endfacet
  facet normal 0 -0.707107 0.707107
    outer loop
      vertex -20 -6 7.34788e-16
      vertex -19.4977 -11.9842 -5.98421
      vertex -17.5279 -11.6085 -5.60845
    endloop
  endfacet
  facet normal -0.42578 0.904827 0
    outer loop
      vertex 15.7134 10.7546 -21
      vertex 17.5279 11.6085 -5.60845
      vertex 17.5279 11.6085 -21
    endloop
  endfacet
  facet normal -0.42578 0.904827 0
    outer loop
      vertex 17.5279 11.6085 -5.60845
      vertex 15.7134 10.7546 -21
      vertex 15.7134 10.7546 -4.75462
    endloop
  endfacet
  facet normal -0.992115 0.125334 0
    outer loop
      vertex 12 4 -8
      vertex 12.2513 5.98952 -21
      vertex 12 4 -21
    endloop
  endfacet
  facet normal -0.992115 0.125334 0
    outer loop
      vertex 12.2513 5.98952 -21
      vertex 12 4 -8
      vertex 12.2513 5.98952 -7.74866
    endloop
  endfacet
  facet normal -0.42578 -0.904827 0
    outer loop
      vertex 15.7134 -10.7546 -21
      vertex 17.5279 -11.6085 -5.60845
      vertex 15.7134 -10.7546 -4.75462
    endloop
  endfacet
  facet normal -0.42578 -0.904827 -0
    outer loop
      vertex 17.5279 -11.6085 -5.60845
      vertex 15.7134 -10.7546 -21
      vertex 17.5279 -11.6085 -21
    endloop
  endfacet
  facet normal -1 0 0
    outer loop
      vertex 12 -4 -21
      vertex 12 4 -8
      vertex 12 4 -21
    endloop
  endfacet
  facet normal -1 -0 0
    outer loop
      vertex 12 4 -8
      vertex 12 -4 -21
      vertex 12 -4 -8
    endloop
  endfacet
  facet normal -0.637424 -0.770513 2.12203e-07
    outer loop
      vertex 14.1683 -9.47638 -5.83175
      vertex 15.7134 -10.7546 -4.75462
      vertex 15.4573 -10.5427 -4.54274
    endloop
  endfacet
  facet normal -0.637424 -0.770514 0
    outer loop
      vertex 15.7134 -10.7546 -21
      vertex 14.1683 -9.47638 -5.83175
      vertex 14.1683 -9.47638 -21
    endloop
  endfacet
  facet normal -0.637424 -0.770514 0
    outer loop
      vertex 14.1683 -9.47638 -5.83175
      vertex 15.7134 -10.7546 -21
      vertex 15.7134 -10.7546 -4.75462
    endloop
  endfacet
  facet normal -0.809017 -0.587785 0
    outer loop
      vertex 14.1683 -9.47638 -21
      vertex 12.9895 -7.85403 -7.01045
      vertex 12.9895 -7.85403 -21
    endloop
  endfacet
  facet normal -0.809017 -0.587785 0
    outer loop
      vertex 12.9895 -7.85403 -7.01045
      vertex 14.1683 -9.47638 -21
      vertex 14.1683 -9.47638 -5.83175
    endloop
  endfacet
  facet normal -0.929777 -0.368124 0
    outer loop
      vertex 12.9895 -7.85403 -21
      vertex 12.2513 -5.98952 -7.74866
      vertex 12.2513 -5.98952 -21
    endloop
  endfacet
  facet normal -0.929777 -0.368124 0
    outer loop
      vertex 12.2513 -5.98952 -7.74866
      vertex 12.9895 -7.85403 -21
      vertex 12.9895 -7.85403 -7.01045
    endloop
  endfacet
  facet normal -0.992115 -0.125334 0
    outer loop
      vertex 12.2513 -5.98952 -21
      vertex 12 -4 -8
      vertex 12 -4 -21
    endloop
  endfacet
  facet normal -0.992115 -0.125334 0
    outer loop
      vertex 12 -4 -8
      vertex 12.2513 -5.98952 -21
      vertex 12.2513 -5.98952 -7.74866
    endloop
  endfacet
  facet normal -0.809017 0.587785 0
    outer loop
      vertex 12.9895 7.85403 -7.01045
      vertex 14.1683 9.47638 -21
      vertex 12.9895 7.85403 -21
    endloop
  endfacet
  facet normal -0.809017 0.587785 0
    outer loop
      vertex 14.1683 9.47638 -21
      vertex 12.9895 7.85403 -7.01045
      vertex 14.1683 9.47638 -5.83175
    endloop
  endfacet
  facet normal -0.637424 0.770513 2.12203e-07
    outer loop
      vertex 15.7134 10.7546 -4.75462
      vertex 14.1683 9.47638 -5.83175
      vertex 15.4573 10.5427 -4.54274
    endloop
  endfacet
  facet normal -0.637424 0.770514 0
    outer loop
      vertex 15.7134 10.7546 -21
      vertex 14.1683 9.47638 -5.83175
      vertex 15.7134 10.7546 -4.75462
    endloop
  endfacet
  facet normal -0.637424 0.770514 0
    outer loop
      vertex 14.1683 9.47638 -5.83175
      vertex 15.7134 10.7546 -21
      vertex 14.1683 9.47638 -21
    endloop
  endfacet
  facet normal 0.0627912 0.998027 -0
    outer loop
      vertex 20 11.9526 -21
      vertex 19.4977 11.9842 -5.98421
      vertex 20 11.9526 -5.95261
    endloop
  endfacet
  facet normal 0.0627912 0.998027 0
    outer loop
      vertex 19.4977 11.9842 -5.98421
      vertex 20 11.9526 -21
      vertex 19.4977 11.9842 -21
    endloop
  endfacet
  facet normal -0.187381 0.982287 0
    outer loop
      vertex 17.5279 11.6085 -21
      vertex 19.4977 11.9842 -5.98421
      vertex 19.4977 11.9842 -21
    endloop
  endfacet
  facet normal -0.187381 0.982287 0
    outer loop
      vertex 19.4977 11.9842 -5.98421
      vertex 17.5279 11.6085 -21
      vertex 17.5279 11.6085 -5.60845
    endloop
  endfacet
  facet normal 0.0627912 -0.998027 0
    outer loop
      vertex 20 -11.9526 -21
      vertex 19.4977 -11.9842 -5.98421
      vertex 19.4977 -11.9842 -21
    endloop
  endfacet
  facet normal 0.0627912 -0.998027 0
    outer loop
      vertex 19.4977 -11.9842 -5.98421
      vertex 20 -11.9526 -21
      vertex 20 -11.9526 -5.95261
    endloop
  endfacet
  facet normal -0.187381 -0.982287 0
    outer loop
      vertex 17.5279 -11.6085 -21
      vertex 19.4977 -11.9842 -5.98421
      vertex 17.5279 -11.6085 -5.60845
    endloop
  endfacet
  facet normal -0.187381 -0.982287 -0
    outer loop
      vertex 19.4977 -11.9842 -5.98421
      vertex 17.5279 -11.6085 -21
      vertex 19.4977 -11.9842 -21
    endloop
  endfacet
  facet normal -0.929777 0.368124 0
    outer loop
      vertex 12.2513 5.98952 -7.74866
      vertex 12.9895 7.85403 -21
      vertex 12.2513 5.98952 -21
    endloop
  endfacet
  facet normal -0.929777 0.368124 0
    outer loop
      vertex 12.9895 7.85403 -21
      vertex 12.2513 5.98952 -7.74866
      vertex 12.9895 7.85403 -7.01045
    endloop
  endfacet
  facet normal -0.707107 0 0.707107
    outer loop
      vertex 20 6 -7.34788e-16
      vertex 14.1683 9.47638 -5.83175
      vertex 12.9895 7.85403 -7.01045
    endloop
  endfacet
  facet normal -0.707107 -5.86959e-17 0.707107
    outer loop
      vertex 14.1683 9.47638 -5.83175
      vertex 20 6 -7.34788e-16
      vertex 15.4573 10.5427 -4.54274
    endloop
  endfacet
  facet normal -0.707107 -4.34937e-17 0.707107
    outer loop
      vertex 12.2513 5.98952 -7.74866
      vertex 20 6 -7.34788e-16
      vertex 12.9895 7.85403 -7.01045
    endloop
  endfacet
  facet normal -0.707107 -2.0373e-17 0.707107
    outer loop
      vertex 12 4 -8
      vertex 20 6 -7.34788e-16
      vertex 12.2513 5.98952 -7.74866
    endloop
  endfacet
  facet normal -0.707107 0 0.707107
    outer loop
      vertex 12 -4 -8
      vertex 20 6 -7.34788e-16
      vertex 12 4 -8
    endloop
  endfacet
  facet normal -0.707107 -3.25968e-16 0.707107
    outer loop
      vertex 20 -6 7.34788e-16
      vertex 12 -4 -8
      vertex 12.2513 -5.98952 -7.74866
    endloop
  endfacet
  facet normal -0.707107 5.23364e-17 0.707107
    outer loop
      vertex 12 -4 -8
      vertex 20 -6 7.34788e-16
      vertex 20 6 -7.34788e-16
    endloop
  endfacet
  facet normal -0.707107 -4.34937e-17 0.707107
    outer loop
      vertex 12.9895 -7.85403 -7.01045
      vertex 20 -6 7.34788e-16
      vertex 12.2513 -5.98952 -7.74866
    endloop
  endfacet
  facet normal -0.707107 -4.63197e-17 0.707107
    outer loop
      vertex 14.1683 -9.47638 -5.83175
      vertex 20 -6 7.34788e-16
      vertex 12.9895 -7.85403 -7.01045
    endloop
  endfacet
  facet normal -0.707107 0 0.707107
    outer loop
      vertex 20 -6 7.34788e-16
      vertex 14.1683 -9.47638 -5.83175
      vertex 15.4573 -10.5427 -4.54274
    endloop
  endfacet
  facet normal 0 0.707107 0.707107
    outer loop
      vertex 20 6 -7.34788e-16
      vertex 15.7134 10.7546 -4.75462
      vertex 15.4573 10.5427 -4.54274
    endloop
  endfacet
  facet normal 0 0.707107 0.707107
    outer loop
      vertex 20 6 -7.34788e-16
      vertex 17.5279 11.6085 -5.60845
      vertex 15.7134 10.7546 -4.75462
    endloop
  endfacet
  facet normal 6.74795e-07 0.707107 0.707107
    outer loop
      vertex 19.4977 11.9842 -5.98421
      vertex 20 6 -7.34788e-16
      vertex 20 11.9526 -5.95261
    endloop
  endfacet
  facet normal 0 0.707107 0.707107
    outer loop
      vertex 20 6 -7.34788e-16
      vertex 19.4977 11.9842 -5.98421
      vertex 17.5279 11.6085 -5.60845
    endloop
  endfacet
  facet normal -7.38505e-17 -0.707107 0.707107
    outer loop
      vertex 15.7134 -10.7546 -4.75462
      vertex 20 -6 7.34788e-16
      vertex 15.4573 -10.5427 -4.54274
    endloop
  endfacet
  facet normal -5.11131e-17 -0.707107 0.707107
    outer loop
      vertex 17.5279 -11.6085 -5.60845
      vertex 20 -6 7.34788e-16
      vertex 15.7134 -10.7546 -4.75462
    endloop
  endfacet
  facet normal -2.62195e-17 -0.707107 0.707107
    outer loop
      vertex 19.4977 -11.9842 -5.98421
      vertex 20 -6 7.34788e-16
      vertex 17.5279 -11.6085 -5.60845
    endloop
  endfacet
  facet normal 6.74795e-07 -0.707107 0.707107
    outer loop
      vertex 20 -6 7.34788e-16
      vertex 19.4977 -11.9842 -5.98421
      vertex 20 -11.9526 -5.95261
    endloop
  endfacet
  facet normal -1 0 0
    outer loop
      vertex -20 -10.4905 -25
      vertex -20 -11.9526 -21
      vertex -20 -10.4905 -11.3123
    endloop
  endfacet
  facet normal -1 0 0
    outer loop
      vertex -20 -12.5 -25
      vertex -20 -11.9526 -21
      vertex -20 -10.4905 -25
    endloop
  endfacet
  facet normal -1 -0 0
    outer loop
      vertex -20 -11.9526 -21
      vertex -20 -12.5 -25
      vertex -20 -12.5 -21
    endloop
  endfacet
  facet normal -1 0 0
    outer loop
      vertex -20 12.5 -25
      vertex -20 11.9526 -21
      vertex -20 12.5 -21
    endloop
  endfacet
  facet normal -1 0 0
    outer loop
      vertex -20 10.4905 -25
      vertex -20 11.9526 -21
      vertex -20 12.5 -25
    endloop
  endfacet
  facet normal -1 0 0
    outer loop
      vertex -20 10.4905 -11.3123
      vertex -20 11.9526 -21
      vertex -20 10.4905 -25
    endloop
  endfacet
  facet normal -1 0 0
    outer loop
      vertex -20 11.9526 -21
      vertex -20 10.4905 -11.3123
      vertex -20 11.9526 -5.95261
    endloop
  endfacet
  facet normal -1 0 0
    outer loop
      vertex -20 7.4 -4.44444
      vertex -20 11.9526 -5.95261
      vertex -20 10.4905 -11.3123
    endloop
  endfacet
  facet normal -1 0 0
    outer loop
      vertex -20 7.4 -4.44444
      vertex -20 6 -7.34788e-16
      vertex -20 11.9526 -5.95261
    endloop
  endfacet
  facet normal -1 0 0
    outer loop
      vertex -20 7.4 -4.44444
      vertex -20 -6 7.34788e-16
      vertex -20 6 -7.34788e-16
    endloop
  endfacet
  facet normal -1 0 0
    outer loop
      vertex -20 -7.4 -4.44444
      vertex -20 -6 7.34788e-16
      vertex -20 7.4 -4.44444
    endloop
  endfacet
  facet normal -1 0 0
    outer loop
      vertex -20 -11.9526 -5.95261
      vertex -20 -7.4 -4.44444
      vertex -20 -10.4905 -11.3123
    endloop
  endfacet
  facet normal -1 -0 0
    outer loop
      vertex -20 -7.4 -4.44444
      vertex -20 -11.9526 -5.95261
      vertex -20 -6 7.34788e-16
    endloop
  endfacet
  facet normal -1 0 0
    outer loop
      vertex -20 -11.9526 -5.95261
      vertex -20 -10.4905 -11.3123
      vertex -20 -11.9526 -21
    endloop
  endfacet
  facet normal 0 0 -1
    outer loop
      vertex 20 -12.5 -25
      vertex 19.7751 -10.4476 -25
      vertex 20 -10.4905 -25
    endloop
  endfacet
  facet normal 0 0 -1
    outer loop
      vertex 20 -12.5 -25
      vertex 18.142 -9.67916 -25
      vertex 19.7751 -10.4476 -25
    endloop
  endfacet
  facet normal 0 0 -1
    outer loop
      vertex 20 -12.5 -25
      vertex 16.7514 -8.52874 -25
      vertex 18.142 -9.67916 -25
    endloop
  endfacet
  facet normal 0 0 -1
    outer loop
      vertex 14.8 -3.6 -25
      vertex -14.8 -3.6 -25
      vertex 14.8 3.6 -25
    endloop
  endfacet
  facet normal 0 0 -1
    outer loop
      vertex 15.0262 -5.39057 -25
      vertex -14.8 -3.6 -25
      vertex 14.8 -3.6 -25
    endloop
  endfacet
  facet normal 0 0 -1
    outer loop
      vertex -15.0262 -5.39057 -25
      vertex 15.0262 -5.39057 -25
      vertex 15.6906 -7.06863 -25
    endloop
  endfacet
  facet normal 0 0 -1
    outer loop
      vertex -15.6906 -7.06863 -25
      vertex 15.6906 -7.06863 -25
      vertex 16.7514 -8.52874 -25
    endloop
  endfacet
  facet normal 0 0 -1
    outer loop
      vertex -16.7514 -8.52874 -25
      vertex 16.7514 -8.52874 -25
      vertex 20 -12.5 -25
    endloop
  endfacet
  facet normal 0 0 -1
    outer loop
      vertex 15.0262 -5.39057 -25
      vertex -15.0262 -5.39057 -25
      vertex -14.8 -3.6 -25
    endloop
  endfacet
  facet normal 0 0 -1
    outer loop
      vertex 15.6906 -7.06863 -25
      vertex -15.6906 -7.06863 -25
      vertex -15.0262 -5.39057 -25
    endloop
  endfacet
  facet normal 0 0 -1
    outer loop
      vertex 16.7514 -8.52874 -25
      vertex -16.7514 -8.52874 -25
      vertex -15.6906 -7.06863 -25
    endloop
  endfacet
  facet normal 0 0 -1
    outer loop
      vertex -20 -12.5 -25
      vertex -16.7514 -8.52874 -25
      vertex 20 -12.5 -25
    endloop
  endfacet
  facet normal 0 0 -1
    outer loop
      vertex -16.7514 -8.52874 -25
      vertex -20 -12.5 -25
      vertex -18.142 -9.67916 -25
    endloop
  endfacet
  facet normal 0 0 -1
    outer loop
      vertex -18.142 -9.67916 -25
      vertex -20 -12.5 -25
      vertex -19.7751 -10.4476 -25
    endloop
  endfacet
  facet normal 0 0 -1
    outer loop
      vertex -19.7751 -10.4476 -25
      vertex -20 -12.5 -25
      vertex -20 -10.4905 -25
    endloop
  endfacet
  facet normal 0 0 -1
    outer loop
      vertex 19.7751 10.4476 -25
      vertex 20 12.5 -25
      vertex 20 10.4905 -25
    endloop
  endfacet
  facet normal 0 0 -1
    outer loop
      vertex 18.142 9.67916 -25
      vertex 20 12.5 -25
      vertex 19.7751 10.4476 -25
    endloop
  endfacet
  facet normal 0 0 -1
    outer loop
      vertex 16.7514 8.52874 -25
      vertex 20 12.5 -25
      vertex 18.142 9.67916 -25
    endloop
  endfacet
  facet normal 0 0 -1
    outer loop
      vertex -14.8 3.6 -25
      vertex 14.8 3.6 -25
      vertex -14.8 -3.6 -25
    endloop
  endfacet
  facet normal 0 0 -1
    outer loop
      vertex 14.8 3.6 -25
      vertex -14.8 3.6 -25
      vertex 15.0262 5.39057 -25
    endloop
  endfacet
  facet normal 0 0 -1
    outer loop
      vertex -15.0262 5.39057 -25
      vertex 15.0262 5.39057 -25
      vertex -14.8 3.6 -25
    endloop
  endfacet
  facet normal 0 0 -1
    outer loop
      vertex 15.0262 5.39057 -25
      vertex -15.0262 5.39057 -25
      vertex 15.6906 7.06863 -25
    endloop
  endfacet
  facet normal 0 0 -1
    outer loop
      vertex -15.6906 7.06863 -25
      vertex 15.6906 7.06863 -25
      vertex -15.0262 5.39057 -25
    endloop
  endfacet
  facet normal 0 0 -1
    outer loop
      vertex 15.6906 7.06863 -25
      vertex -15.6906 7.06863 -25
      vertex 16.7514 8.52874 -25
    endloop
  endfacet
  facet normal 0 0 -1
    outer loop
      vertex -16.7514 8.52874 -25
      vertex 16.7514 8.52874 -25
      vertex -15.6906 7.06863 -25
    endloop
  endfacet
  facet normal 0 0 -1
    outer loop
      vertex 16.7514 8.52874 -25
      vertex -16.7514 8.52874 -25
      vertex 20 12.5 -25
    endloop
  endfacet
  facet normal 0 0 -1
    outer loop
      vertex -20 12.5 -25
      vertex -16.7514 8.52874 -25
      vertex -18.142 9.67916 -25
    endloop
  endfacet
  facet normal 0 0 -1
    outer loop
      vertex -20 12.5 -25
      vertex -18.142 9.67916 -25
      vertex -19.7751 10.4476 -25
    endloop
  endfacet
  facet normal 0 0 -1
    outer loop
      vertex -20 12.5 -25
      vertex -19.7751 10.4476 -25
      vertex -20 10.4905 -25
    endloop
  endfacet
  facet normal 0 0 -1
    outer loop
      vertex -16.7514 8.52874 -25
      vertex -20 12.5 -25
      vertex 20 12.5 -25
    endloop
  endfacet
  facet normal 1 0 0
    outer loop
      vertex 20 11.9526 -5.95261
      vertex 20 10.4905 -11.3123
      vertex 20 11.9526 -21
    endloop
  endfacet
  facet normal 1 0 0
    outer loop
      vertex 20 11.9526 -5.95261
      vertex 20 7.4 -4.44444
      vertex 20 10.4905 -11.3123
    endloop
  endfacet
  facet normal 1 0 0
    outer loop
      vertex 20 6 -7.34788e-16
      vertex 20 7.4 -4.44444
      vertex 20 11.9526 -5.95261
    endloop
  endfacet
  facet normal 1 0 0
    outer loop
      vertex 20 -6 7.34788e-16
      vertex 20 7.4 -4.44444
      vertex 20 6 -7.34788e-16
    endloop
  endfacet
  facet normal 1 0 0
    outer loop
      vertex 20 -6 7.34788e-16
      vertex 20 -7.4 -4.44444
      vertex 20 7.4 -4.44444
    endloop
  endfacet
  facet normal 1 0 0
    outer loop
      vertex 20 -11.9526 -5.95261
      vertex 20 -7.4 -4.44444
      vertex 20 -6 7.34788e-16
    endloop
  endfacet
  facet normal 1 0 0
    outer loop
      vertex 20 -7.4 -4.44444
      vertex 20 -11.9526 -5.95261
      vertex 20 -10.4905 -11.3123
    endloop
  endfacet
  facet normal 1 0 0
    outer loop
      vertex 20 -11.9526 -21
      vertex 20 -10.4905 -11.3123
      vertex 20 -11.9526 -5.95261
    endloop
  endfacet
  facet normal 1 0 0
    outer loop
      vertex 20 -10.4905 -11.3123
      vertex 20 -11.9526 -21
      vertex 20 -10.4905 -25
    endloop
  endfacet
  facet normal 1 0 0
    outer loop
      vertex 20 -12.5 -25
      vertex 20 -11.9526 -21
      vertex 20 -12.5 -21
    endloop
  endfacet
  facet normal 1 0 0
    outer loop
      vertex 20 -11.9526 -21
      vertex 20 -12.5 -25
      vertex 20 -10.4905 -25
    endloop
  endfacet
  facet normal 1 -0 0
    outer loop
      vertex 20 11.9526 -21
      vertex 20 12.5 -25
      vertex 20 12.5 -21
    endloop
  endfacet
  facet normal 1 0 0
    outer loop
      vertex 20 10.4905 -25
      vertex 20 11.9526 -21
      vertex 20 10.4905 -11.3123
    endloop
  endfacet
  facet normal 1 0 0
    outer loop
      vertex 20 11.9526 -21
      vertex 20 10.4905 -25
      vertex 20 12.5 -25
    endloop
  endfacet
  facet normal 0 -1 0
    outer loop
      vertex -20 -12.5 -25
      vertex 20 -12.5 -21
      vertex -20 -12.5 -21
    endloop
  endfacet
  facet normal 0 -1 -0
    outer loop
      vertex 20 -12.5 -21
      vertex -20 -12.5 -25
      vertex 20 -12.5 -25
    endloop
  endfacet
  facet normal 0 0 1
    outer loop
      vertex 20 12.5 -21
      vertex 19.4977 11.9842 -21
      vertex 20 11.9526 -21
    endloop
  endfacet
  facet normal 0 0 1
    outer loop
      vertex 20 12.5 -21
      vertex 17.5279 11.6085 -21
      vertex 19.4977 11.9842 -21
    endloop
  endfacet
  facet normal 0 0 1
    outer loop
      vertex 12 4 -21
      vertex -12 4 -21
      vertex 12 -4 -21
    endloop
  endfacet
  facet normal 0 0 1
    outer loop
      vertex 12.2513 5.98952 -21
      vertex -12 4 -21
      vertex 12 4 -21
    endloop
  endfacet
  facet normal 0 0 1
    outer loop
      vertex -12.2513 5.98952 -21
      vertex 12.2513 5.98952 -21
      vertex 12.9895 7.85403 -21
    endloop
  endfacet
  facet normal 0 0 1
    outer loop
      vertex -12.9895 7.85403 -21
      vertex 12.9895 7.85403 -21
      vertex 14.1683 9.47638 -21
    endloop
  endfacet
  facet normal 0 0 1
    outer loop
      vertex -14.1683 9.47638 -21
      vertex 14.1683 9.47638 -21
      vertex 15.7134 10.7546 -21
    endloop
  endfacet
  facet normal 0 0 1
    outer loop
      vertex -15.7134 10.7546 -21
      vertex 15.7134 10.7546 -21
      vertex 17.5279 11.6085 -21
    endloop
  endfacet
  facet normal 0 0 1
    outer loop
      vertex -17.5279 11.6085 -21
      vertex 17.5279 11.6085 -21
      vertex 20 12.5 -21
    endloop
  endfacet
  facet normal 0 0 1
    outer loop
      vertex 12.2513 5.98952 -21
      vertex -12.2513 5.98952 -21
      vertex -12 4 -21
    endloop
  endfacet
  facet normal 0 0 1
    outer loop
      vertex 12.9895 7.85403 -21
      vertex -12.9895 7.85403 -21
      vertex -12.2513 5.98952 -21
    endloop
  endfacet
  facet normal 0 0 1
    outer loop
      vertex 14.1683 9.47638 -21
      vertex -14.1683 9.47638 -21
      vertex -12.9895 7.85403 -21
    endloop
  endfacet
  facet normal 0 0 1
    outer loop
      vertex 15.7134 10.7546 -21
      vertex -15.7134 10.7546 -21
      vertex -14.1683 9.47638 -21
    endloop
  endfacet
  facet normal 0 0 1
    outer loop
      vertex 17.5279 11.6085 -21
      vertex -17.5279 11.6085 -21
      vertex -15.7134 10.7546 -21
    endloop
  endfacet
  facet normal -0 0 1
    outer loop
      vertex -20 12.5 -21
      vertex -17.5279 11.6085 -21
      vertex 20 12.5 -21
    endloop
  endfacet
  facet normal 0 0 1
    outer loop
      vertex -17.5279 11.6085 -21
      vertex -20 12.5 -21
      vertex -19.4977 11.9842 -21
    endloop
  endfacet
  facet normal 0 0 1
    outer loop
      vertex -19.4977 11.9842 -21
      vertex -20 12.5 -21
      vertex -20 11.9526 -21
    endloop
  endfacet
  facet normal -0 0 1
    outer loop
      vertex 19.4977 -11.9842 -21
      vertex 20 -12.5 -21
      vertex 20 -11.9526 -21
    endloop
  endfacet
  facet normal 0 0 1
    outer loop
      vertex 17.5279 -11.6085 -21
      vertex 20 -12.5 -21
      vertex 19.4977 -11.9842 -21
    endloop
  endfacet
  facet normal 0 0 1
    outer loop
      vertex -12 -4 -21
      vertex 12 -4 -21
      vertex -12 4 -21
    endloop
  endfacet
  facet normal 0 0 1
    outer loop
      vertex 12 -4 -21
      vertex -12 -4 -21
      vertex 12.2513 -5.98952 -21
    endloop
  endfacet
  facet normal 0 0 1
    outer loop
      vertex -12.2513 -5.98952 -21
      vertex 12.2513 -5.98952 -21
      vertex -12 -4 -21
    endloop
  endfacet
  facet normal 0 0 1
    outer loop
      vertex 12.2513 -5.98952 -21
      vertex -12.2513 -5.98952 -21
      vertex 12.9895 -7.85403 -21
    endloop
  endfacet
  facet normal 0 0 1
    outer loop
      vertex -12.9895 -7.85403 -21
      vertex 12.9895 -7.85403 -21
      vertex -12.2513 -5.98952 -21
    endloop
  endfacet
  facet normal 0 0 1
    outer loop
      vertex 12.9895 -7.85403 -21
      vertex -12.9895 -7.85403 -21
      vertex 14.1683 -9.47638 -21
    endloop
  endfacet
  facet normal 0 0 1
    outer loop
      vertex -14.1683 -9.47638 -21
      vertex 14.1683 -9.47638 -21
      vertex -12.9895 -7.85403 -21
    endloop
  endfacet
  facet normal 0 0 1
    outer loop
      vertex 14.1683 -9.47638 -21
      vertex -14.1683 -9.47638 -21
      vertex 15.7134 -10.7546 -21
    endloop
  endfacet
  facet normal 0 0 1
    outer loop
      vertex -15.7134 -10.7546 -21
      vertex 15.7134 -10.7546 -21
      vertex -14.1683 -9.47638 -21
    endloop
  endfacet
  facet normal 0 0 1
    outer loop
      vertex 15.7134 -10.7546 -21
      vertex -15.7134 -10.7546 -21
      vertex 17.5279 -11.6085 -21
    endloop
  endfacet
  facet normal 0 0 1
    outer loop
      vertex -17.5279 -11.6085 -21
      vertex 17.5279 -11.6085 -21
      vertex -15.7134 -10.7546 -21
    endloop
  endfacet
  facet normal 0 0 1
    outer loop
      vertex 17.5279 -11.6085 -21
      vertex -17.5279 -11.6085 -21
      vertex 20 -12.5 -21
    endloop
  endfacet
  facet normal 0 0 1
    outer loop
      vertex -20 -12.5 -21
      vertex -17.5279 -11.6085 -21
      vertex -19.4977 -11.9842 -21
    endloop
  endfacet
  facet normal 0 0 1
    outer loop
      vertex -17.5279 -11.6085 -21
      vertex -20 -12.5 -21
      vertex 20 -12.5 -21
    endloop
  endfacet
  facet normal 0 0 1
    outer loop
      vertex -20 -12.5 -21
      vertex -19.4977 -11.9842 -21
      vertex -20 -11.9526 -21
    endloop
  endfacet
  facet normal 0 1 -0
    outer loop
      vertex 20 12.5 -25
      vertex -20 12.5 -21
      vertex 20 12.5 -21
    endloop
  endfacet
  facet normal 0 1 0
    outer loop
      vertex -20 12.5 -21
      vertex 20 12.5 -25
      vertex -20 12.5 -25
    endloop
  endfacet
  facet normal 0.42578 -0.904827 0
    outer loop
      vertex 18.142 9.67916 -25
      vertex 19.7751 10.4476 -11.2169
      vertex 18.142 9.67916 -9.50924
    endloop
  endfacet
  facet normal 0.42578 -0.904827 0
    outer loop
      vertex 19.7751 10.4476 -11.2169
      vertex 18.142 9.67916 -25
      vertex 19.7751 10.4476 -25
    endloop
  endfacet
  facet normal 0.992115 -0.125333 0
    outer loop
      vertex 14.8 3.6 -16
      vertex 15.0262 5.39057 -25
      vertex 15.0262 5.39057 -15.4973
    endloop
  endfacet
  facet normal 0.992115 -0.125333 0
    outer loop
      vertex 15.0262 5.39057 -25
      vertex 14.8 3.6 -16
      vertex 14.8 3.6 -25
    endloop
  endfacet
  facet normal 0.42578 0.904827 0
    outer loop
      vertex 18.142 -9.67916 -25
      vertex 19.7751 -10.4476 -11.2169
      vertex 19.7751 -10.4476 -25
    endloop
  endfacet
  facet normal 0.42578 0.904827 0
    outer loop
      vertex 19.7751 -10.4476 -11.2169
      vertex 18.142 -9.67916 -25
      vertex 18.142 -9.67916 -9.50924
    endloop
  endfacet
  facet normal 1 -0 0
    outer loop
      vertex 14.8 -3.6 -16
      vertex 14.8 3.6 -25
      vertex 14.8 3.6 -16
    endloop
  endfacet
  facet normal 1 0 0
    outer loop
      vertex 14.8 3.6 -25
      vertex 14.8 -3.6 -16
      vertex 14.8 -3.6 -25
    endloop
  endfacet
  facet normal 0.637423 0.770514 7.25952e-07
    outer loop
      vertex 18.142 -9.67916 -9.50924
      vertex 16.7514 -8.52874 -11.6635
      vertex 17.9115 -9.48846 -9.08548
    endloop
  endfacet
  facet normal 0.637424 0.770513 -0
    outer loop
      vertex 18.142 -9.67916 -25
      vertex 16.7514 -8.52874 -11.6635
      vertex 18.142 -9.67916 -9.50924
    endloop
  endfacet
  facet normal 0.637424 0.770513 0
    outer loop
      vertex 16.7514 -8.52874 -11.6635
      vertex 18.142 -9.67916 -25
      vertex 16.7514 -8.52874 -25
    endloop
  endfacet
  facet normal 0.809017 0.587785 -0
    outer loop
      vertex 16.7514 -8.52874 -25
      vertex 15.6906 -7.06863 -14.0209
      vertex 16.7514 -8.52874 -11.6635
    endloop
  endfacet
  facet normal 0.809017 0.587785 0
    outer loop
      vertex 15.6906 -7.06863 -14.0209
      vertex 16.7514 -8.52874 -25
      vertex 15.6906 -7.06863 -25
    endloop
  endfacet
  facet normal 0.929777 0.368124 -0
    outer loop
      vertex 15.6906 -7.06863 -25
      vertex 15.0262 -5.39057 -15.4973
      vertex 15.6906 -7.06863 -14.0209
    endloop
  endfacet
  facet normal 0.929777 0.368124 0
    outer loop
      vertex 15.0262 -5.39057 -15.4973
      vertex 15.6906 -7.06863 -25
      vertex 15.0262 -5.39057 -25
    endloop
  endfacet
  facet normal 0.992115 0.125333 -0
    outer loop
      vertex 15.0262 -5.39057 -25
      vertex 14.8 -3.6 -16
      vertex 15.0262 -5.39057 -15.4973
    endloop
  endfacet
  facet normal 0.992115 0.125333 0
    outer loop
      vertex 14.8 -3.6 -16
      vertex 15.0262 -5.39057 -25
      vertex 14.8 -3.6 -25
    endloop
  endfacet
  facet normal 0.809017 -0.587785 0
    outer loop
      vertex 15.6906 7.06863 -14.0209
      vertex 16.7514 8.52874 -25
      vertex 16.7514 8.52874 -11.6635
    endloop
  endfacet
  facet normal 0.809017 -0.587785 0
    outer loop
      vertex 16.7514 8.52874 -25
      vertex 15.6906 7.06863 -14.0209
      vertex 15.6906 7.06863 -25
    endloop
  endfacet
  facet normal 0.637423 -0.770514 7.25952e-07
    outer loop
      vertex 16.7514 8.52874 -11.6635
      vertex 18.142 9.67916 -9.50924
      vertex 17.9115 9.48846 -9.08548
    endloop
  endfacet
  facet normal 0.637424 -0.770513 0
    outer loop
      vertex 18.142 9.67916 -25
      vertex 16.7514 8.52874 -11.6635
      vertex 16.7514 8.52874 -25
    endloop
  endfacet
  facet normal 0.637424 -0.770513 0
    outer loop
      vertex 16.7514 8.52874 -11.6635
      vertex 18.142 9.67916 -25
      vertex 18.142 9.67916 -9.50924
    endloop
  endfacet
  facet normal 0.18738 -0.982288 0
    outer loop
      vertex 19.7751 10.4476 -25
      vertex 20 10.4905 -11.3123
      vertex 19.7751 10.4476 -11.2169
    endloop
  endfacet
  facet normal 0.18738 -0.982288 0
    outer loop
      vertex 20 10.4905 -11.3123
      vertex 19.7751 10.4476 -25
      vertex 20 10.4905 -25
    endloop
  endfacet
  facet normal 0.18738 0.982288 0
    outer loop
      vertex 19.7751 -10.4476 -25
      vertex 20 -10.4905 -11.3123
      vertex 20 -10.4905 -25
    endloop
  endfacet
  facet normal 0.18738 0.982288 0
    outer loop
      vertex 20 -10.4905 -11.3123
      vertex 19.7751 -10.4476 -25
      vertex 19.7751 -10.4476 -11.2169
    endloop
  endfacet
  facet normal 0.929777 -0.368124 0
    outer loop
      vertex 15.0262 5.39057 -15.4973
      vertex 15.6906 7.06863 -25
      vertex 15.6906 7.06863 -14.0209
    endloop
  endfacet
  facet normal 0.929777 -0.368124 0
    outer loop
      vertex 15.6906 7.06863 -25
      vertex 15.0262 5.39057 -15.4973
      vertex 15.0262 5.39057 -25
    endloop
  endfacet
  facet normal 0.911922 7.33883e-07 -0.410365
    outer loop
      vertex 20 7.4 -4.44444
      vertex 16.7514 8.52874 -11.6635
      vertex 17.9115 9.48846 -9.08548
    endloop
  endfacet
  facet normal 0.911922 -1.5829e-07 -0.410365
    outer loop
      vertex 14.8 3.6 -16
      vertex 16.7514 8.52874 -11.6635
      vertex 20 7.4 -4.44444
    endloop
  endfacet
  facet normal 0.911921 5.51963e-07 -0.410365
    outer loop
      vertex 16.7514 8.52874 -11.6635
      vertex 14.8 3.6 -16
      vertex 15.6906 7.06863 -14.0209
    endloop
  endfacet
  facet normal 0.911921 4.52259e-07 -0.410365
    outer loop
      vertex 15.6906 7.06863 -14.0209
      vertex 14.8 3.6 -16
      vertex 15.0262 5.39057 -15.4973
    endloop
  endfacet
  facet normal 0.911922 0 -0.410365
    outer loop
      vertex 20 7.4 -4.44444
      vertex 14.8 -3.6 -16
      vertex 14.8 3.6 -16
    endloop
  endfacet
  facet normal 0.911922 0 -0.410365
    outer loop
      vertex 20 -7.4 -4.44444
      vertex 14.8 -3.6 -16
      vertex 20 7.4 -4.44444
    endloop
  endfacet
  facet normal 0.911922 1.5829e-07 -0.410365
    outer loop
      vertex 16.7514 -8.52874 -11.6635
      vertex 14.8 -3.6 -16
      vertex 20 -7.4 -4.44444
    endloop
  endfacet
  facet normal 0.911921 -4.52259e-07 -0.410365
    outer loop
      vertex 14.8 -3.6 -16
      vertex 15.6906 -7.06863 -14.0209
      vertex 15.0262 -5.39057 -15.4973
    endloop
  endfacet
  facet normal 0.911921 -5.51963e-07 -0.410365
    outer loop
      vertex 14.8 -3.6 -16
      vertex 16.7514 -8.52874 -11.6635
      vertex 15.6906 -7.06863 -14.0209
    endloop
  endfacet
  facet normal 0.911922 -7.33883e-07 -0.410365
    outer loop
      vertex 16.7514 -8.52874 -11.6635
      vertex 20 -7.4 -4.44444
      vertex 17.9115 -9.48846 -9.08548
    endloop
  endfacet
  facet normal -6.5712e-07 -0.911922 -0.410364
    outer loop
      vertex 18.142 9.67916 -9.50924
      vertex 20 7.4 -4.44444
      vertex 17.9115 9.48846 -9.08548
    endloop
  endfacet
  facet normal -8.31796e-07 -0.911921 -0.410366
    outer loop
      vertex 20 10.4905 -11.3123
      vertex 18.142 9.67916 -9.50924
      vertex 19.7751 10.4476 -11.2169
    endloop
  endfacet
  facet normal 1.50367e-07 -0.911921 -0.410365
    outer loop
      vertex 18.142 9.67916 -9.50924
      vertex 20 10.4905 -11.3123
      vertex 20 7.4 -4.44444
    endloop
  endfacet
  facet normal -6.5712e-07 0.911922 -0.410364
    outer loop
      vertex 20 -7.4 -4.44444
      vertex 18.142 -9.67916 -9.50924
      vertex 17.9115 -9.48846 -9.08548
    endloop
  endfacet
  facet normal 1.50367e-07 0.911921 -0.410365
    outer loop
      vertex 20 -10.4905 -11.3123
      vertex 18.142 -9.67916 -9.50924
      vertex 20 -7.4 -4.44444
    endloop
  endfacet
  facet normal -8.31796e-07 0.911921 -0.410366
    outer loop
      vertex 18.142 -9.67916 -9.50924
      vertex 20 -10.4905 -11.3123
      vertex 19.7751 -10.4476 -11.2169
    endloop
  endfacet
  facet normal -0.42578 -0.904827 0
    outer loop
      vertex -18.142 9.67916 -25
      vertex -19.7751 10.4476 -11.2169
      vertex -19.7751 10.4476 -25
    endloop
  endfacet
  facet normal -0.42578 -0.904827 0
    outer loop
      vertex -19.7751 10.4476 -11.2169
      vertex -18.142 9.67916 -25
      vertex -18.142 9.67916 -9.50924
    endloop
  endfacet
  facet normal -0.992115 -0.125333 -0
    outer loop
      vertex -14.8 3.6 -16
      vertex -15.0262 5.39057 -25
      vertex -14.8 3.6 -25
    endloop
  endfacet
  facet normal -0.992115 -0.125333 0
    outer loop
      vertex -15.0262 5.39057 -25
      vertex -14.8 3.6 -16
      vertex -15.0262 5.39057 -15.4973
    endloop
  endfacet
  facet normal -0.42578 0.904827 0
    outer loop
      vertex -18.142 -9.67916 -25
      vertex -19.7751 -10.4476 -11.2169
      vertex -18.142 -9.67916 -9.50924
    endloop
  endfacet
  facet normal -0.42578 0.904827 0
    outer loop
      vertex -19.7751 -10.4476 -11.2169
      vertex -18.142 -9.67916 -25
      vertex -19.7751 -10.4476 -25
    endloop
  endfacet
  facet normal -1 0 0
    outer loop
      vertex -14.8 -3.6 -25
      vertex -14.8 3.6 -16
      vertex -14.8 3.6 -25
    endloop
  endfacet
  facet normal -1 -0 0
    outer loop
      vertex -14.8 3.6 -16
      vertex -14.8 -3.6 -25
      vertex -14.8 -3.6 -16
    endloop
  endfacet
  facet normal -0.637423 0.770514 7.25952e-07
    outer loop
      vertex -16.7514 -8.52874 -11.6635
      vertex -18.142 -9.67916 -9.50924
      vertex -17.9115 -9.48846 -9.08548
    endloop
  endfacet
  facet normal -0.637424 0.770513 0
    outer loop
      vertex -18.142 -9.67916 -25
      vertex -16.7514 -8.52874 -11.6635
      vertex -16.7514 -8.52874 -25
    endloop
  endfacet
  facet normal -0.637424 0.770513 0
    outer loop
      vertex -16.7514 -8.52874 -11.6635
      vertex -18.142 -9.67916 -25
      vertex -18.142 -9.67916 -9.50924
    endloop
  endfacet
  facet normal -0.809017 0.587785 0
    outer loop
      vertex -16.7514 -8.52874 -25
      vertex -15.6906 -7.06863 -14.0209
      vertex -15.6906 -7.06863 -25
    endloop
  endfacet
  facet normal -0.809017 0.587785 0
    outer loop
      vertex -15.6906 -7.06863 -14.0209
      vertex -16.7514 -8.52874 -25
      vertex -16.7514 -8.52874 -11.6635
    endloop
  endfacet
  facet normal -0.929777 0.368124 0
    outer loop
      vertex -15.6906 -7.06863 -25
      vertex -15.0262 -5.39057 -15.4973
      vertex -15.0262 -5.39057 -25
    endloop
  endfacet
  facet normal -0.929777 0.368124 0
    outer loop
      vertex -15.0262 -5.39057 -15.4973
      vertex -15.6906 -7.06863 -25
      vertex -15.6906 -7.06863 -14.0209
    endloop
  endfacet
  facet normal -0.992115 0.125333 0
    outer loop
      vertex -15.0262 -5.39057 -25
      vertex -14.8 -3.6 -16
      vertex -14.8 -3.6 -25
    endloop
  endfacet
  facet normal -0.992115 0.125333 0
    outer loop
      vertex -14.8 -3.6 -16
      vertex -15.0262 -5.39057 -25
      vertex -15.0262 -5.39057 -15.4973
    endloop
  endfacet
  facet normal -0.809017 -0.587785 -0
    outer loop
      vertex -15.6906 7.06863 -14.0209
      vertex -16.7514 8.52874 -25
      vertex -15.6906 7.06863 -25
    endloop
  endfacet
  facet normal -0.809017 -0.587785 0
    outer loop
      vertex -16.7514 8.52874 -25
      vertex -15.6906 7.06863 -14.0209
      vertex -16.7514 8.52874 -11.6635
    endloop
  endfacet
  facet normal -0.637423 -0.770514 7.25952e-07
    outer loop
      vertex -18.142 9.67916 -9.50924
      vertex -16.7514 8.52874 -11.6635
      vertex -17.9115 9.48846 -9.08548
    endloop
  endfacet
  facet normal -0.637424 -0.770513 0
    outer loop
      vertex -18.142 9.67916 -25
      vertex -16.7514 8.52874 -11.6635
      vertex -18.142 9.67916 -9.50924
    endloop
  endfacet
  facet normal -0.637424 -0.770513 -0
    outer loop
      vertex -16.7514 8.52874 -11.6635
      vertex -18.142 9.67916 -25
      vertex -16.7514 8.52874 -25
    endloop
  endfacet
  facet normal -0.18738 -0.982288 0
    outer loop
      vertex -19.7751 10.4476 -25
      vertex -20 10.4905 -11.3123
      vertex -20 10.4905 -25
    endloop
  endfacet
  facet normal -0.18738 -0.982288 0
    outer loop
      vertex -20 10.4905 -11.3123
      vertex -19.7751 10.4476 -25
      vertex -19.7751 10.4476 -11.2169
    endloop
  endfacet
  facet normal -0.18738 0.982288 0
    outer loop
      vertex -19.7751 -10.4476 -25
      vertex -20 -10.4905 -11.3123
      vertex -19.7751 -10.4476 -11.2169
    endloop
  endfacet
  facet normal -0.18738 0.982288 0
    outer loop
      vertex -20 -10.4905 -11.3123
      vertex -19.7751 -10.4476 -25
      vertex -20 -10.4905 -25
    endloop
  endfacet
  facet normal -0.929777 -0.368124 -0
    outer loop
      vertex -15.0262 5.39057 -15.4973
      vertex -15.6906 7.06863 -25
      vertex -15.0262 5.39057 -25
    endloop
  endfacet
  facet normal -0.929777 -0.368124 0
    outer loop
      vertex -15.6906 7.06863 -25
      vertex -15.0262 5.39057 -15.4973
      vertex -15.6906 7.06863 -14.0209
    endloop
  endfacet
  facet normal -0.911922 7.33883e-07 -0.410365
    outer loop
      vertex -16.7514 8.52874 -11.6635
      vertex -20 7.4 -4.44444
      vertex -17.9115 9.48846 -9.08548
    endloop
  endfacet
  facet normal -0.911921 5.51963e-07 -0.410365
    outer loop
      vertex -14.8 3.6 -16
      vertex -16.7514 8.52874 -11.6635
      vertex -15.6906 7.06863 -14.0209
    endloop
  endfacet
  facet normal -0.911921 4.52259e-07 -0.410365
    outer loop
      vertex -14.8 3.6 -16
      vertex -15.6906 7.06863 -14.0209
      vertex -15.0262 5.39057 -15.4973
    endloop
  endfacet
  facet normal -0.911922 -1.5829e-07 -0.410365
    outer loop
      vertex -16.7514 8.52874 -11.6635
      vertex -14.8 3.6 -16
      vertex -20 7.4 -4.44444
    endloop
  endfacet
  facet normal -0.911922 0 -0.410365
    outer loop
      vertex -14.8 -3.6 -16
      vertex -20 7.4 -4.44444
      vertex -14.8 3.6 -16
    endloop
  endfacet
  facet normal -0.911921 -4.52259e-07 -0.410365
    outer loop
      vertex -15.6906 -7.06863 -14.0209
      vertex -14.8 -3.6 -16
      vertex -15.0262 -5.39057 -15.4973
    endloop
  endfacet
  facet normal -0.911921 -5.51963e-07 -0.410365
    outer loop
      vertex -16.7514 -8.52874 -11.6635
      vertex -14.8 -3.6 -16
      vertex -15.6906 -7.06863 -14.0209
    endloop
  endfacet
  facet normal -0.911922 0 -0.410365
    outer loop
      vertex -14.8 -3.6 -16
      vertex -20 -7.4 -4.44444
      vertex -20 7.4 -4.44444
    endloop
  endfacet
  facet normal -0.911922 1.5829e-07 -0.410365
    outer loop
      vertex -14.8 -3.6 -16
      vertex -16.7514 -8.52874 -11.6635
      vertex -20 -7.4 -4.44444
    endloop
  endfacet
  facet normal -0.911922 -7.33883e-07 -0.410365
    outer loop
      vertex -20 -7.4 -4.44444
      vertex -16.7514 -8.52874 -11.6635
      vertex -17.9115 -9.48846 -9.08548
    endloop
  endfacet
  facet normal 6.5712e-07 -0.911922 -0.410364
    outer loop
      vertex -20 7.4 -4.44444
      vertex -18.142 9.67916 -9.50924
      vertex -17.9115 9.48846 -9.08548
    endloop
  endfacet
  facet normal -1.50367e-07 -0.911921 -0.410365
    outer loop
      vertex -20 10.4905 -11.3123
      vertex -18.142 9.67916 -9.50924
      vertex -20 7.4 -4.44444
    endloop
  endfacet
  facet normal 8.31796e-07 -0.911921 -0.410366
    outer loop
      vertex -18.142 9.67916 -9.50924
      vertex -20 10.4905 -11.3123
      vertex -19.7751 10.4476 -11.2169
    endloop
  endfacet
  facet normal 6.5712e-07 0.911922 -0.410364
    outer loop
      vertex -18.142 -9.67916 -9.50924
      vertex -20 -7.4 -4.44444
      vertex -17.9115 -9.48846 -9.08548
    endloop
  endfacet
  facet normal 8.31796e-07 0.911921 -0.410366
    outer loop
      vertex -20 -10.4905 -11.3123
      vertex -18.142 -9.67916 -9.50924
      vertex -19.7751 -10.4476 -11.2169
    endloop
  endfacet
  facet normal -1.50367e-07 0.911921 -0.410365
    outer loop
      vertex -18.142 -9.67916 -9.50924
      vertex -20 -10.4905 -11.3123
      vertex -20 -7.4 -4.44444
    endloop
  endfacet
endsolid OpenSCAD_Model
