solid OpenSCAD_Model
  facet normal 0.995182 -0.0980443 -7.23187e-08
    outer loop
      vertex -129.821 99.6593 17.2209
      vertex -129.821 99.6593 37.9077
      vertex -129.988 97.9651 37.9077
    endloop
  endfacet
  facet normal 0.995182 -0.0980443 -7.23187e-08
    outer loop
      vertex -129.988 97.9651 37.9077
      vertex -129.988 97.9651 17.2209
      vertex -129.821 99.6593 17.2209
    endloop
  endfacet
  facet normal 0 0 -1
    outer loop
      vertex -137.265 105.815 17.2209
      vertex -138.498 105.936 17.2209
      vertex -138.506 108.344 17.2209
    endloop
  endfacet
  facet normal 0 0 -1
    outer loop
      vertex -138.506 108.344 17.2209
      vertex -136.811 108.177 17.2209
      vertex -135.182 107.683 17.2209
    endloop
  endfacet
  facet normal 0 0 -1
    outer loop
      vertex -135.182 107.683 17.2209
      vertex -133.681 106.88 17.2209
      vertex -132.365 105.8 17.2209
    endloop
  endfacet
  facet normal 1.77576e-05 1.45734e-05 -1
    outer loop
      vertex -132.365 105.8 17.2209
      vertex -131.285 104.484 17.2209
      vertex -130.482 102.983 17.2209
    endloop
  endfacet
  facet normal 0 0 -1
    outer loop
      vertex -130.482 102.983 17.2209
      vertex -129.988 101.354 17.2209
      vertex -129.821 99.6593 17.2209
    endloop
  endfacet
  facet normal 0 0 -1
    outer loop
      vertex -129.821 99.6593 17.2209
      vertex -129.988 97.9651 17.2209
      vertex -130.482 96.336 17.2209
    endloop
  endfacet
  facet normal 0 0 -1
    outer loop
      vertex -130.482 96.336 17.2209
      vertex -131.285 94.8346 17.2209
      vertex -132.365 93.5186 17.2209
    endloop
  endfacet
  facet normal 0 0 -1
    outer loop
      vertex -132.365 93.5186 17.2209
      vertex -133.681 92.4386 17.2209
      vertex -135.182 91.6361 17.2209
    endloop
  endfacet
  facet normal 0 0 -1
    outer loop
      vertex -135.182 91.6361 17.2209
      vertex -136.811 91.1419 17.2209
      vertex -138.506 90.9751 17.2209
    endloop
  endfacet
  facet normal 0 0 -1
    outer loop
      vertex -138.506 90.9751 17.2209
      vertex -139.731 93.4195 17.2209
      vertex -138.498 93.2981 17.2209
    endloop
  endfacet
  facet normal 0 0 -1
    outer loop
      vertex -138.506 90.9751 17.2209
      vertex -138.498 93.2981 17.2209
      vertex -137.265 93.4195 17.2209
    endloop
  endfacet
  facet normal 0 0 -1
    outer loop
      vertex -132.365 93.5186 17.2209
      vertex -135.182 91.6361 17.2209
      vertex -138.506 90.9751 17.2209
    endloop
  endfacet
  facet normal 0 0 -1
    outer loop
      vertex -129.821 99.6593 17.2209
      vertex -130.482 96.336 17.2209
      vertex -132.365 93.5186 17.2209
    endloop
  endfacet
  facet normal -5.77052e-06 -1.14781e-06 -1
    outer loop
      vertex -132.365 105.8 17.2209
      vertex -130.482 102.983 17.2209
      vertex -129.821 99.6593 17.2209
    endloop
  endfacet
  facet normal 0 0 -1
    outer loop
      vertex -138.506 108.344 17.2209
      vertex -135.182 107.683 17.2209
      vertex -132.365 105.8 17.2209
    endloop
  endfacet
  facet normal 0 0 -1
    outer loop
      vertex -136.08 105.455 17.2209
      vertex -137.265 105.815 17.2209
      vertex -138.506 108.344 17.2209
    endloop
  endfacet
  facet normal 0 0 -1
    outer loop
      vertex -134.987 104.871 17.2209
      vertex -136.08 105.455 17.2209
      vertex -138.506 108.344 17.2209
    endloop
  endfacet
  facet normal 0 0 -1
    outer loop
      vertex -132.365 93.5186 17.2209
      vertex -138.506 90.9751 17.2209
      vertex -137.265 93.4195 17.2209
    endloop
  endfacet
  facet normal -0 0 -1
    outer loop
      vertex -132.365 93.5186 17.2209
      vertex -137.265 93.4195 17.2209
      vertex -136.08 93.7791 17.2209
    endloop
  endfacet
  facet normal 0 0 -1
    outer loop
      vertex -134.987 104.871 17.2209
      vertex -138.506 108.344 17.2209
      vertex -132.365 105.8 17.2209
    endloop
  endfacet
  facet normal 0 0 -1
    outer loop
      vertex -134.029 104.085 17.2209
      vertex -134.987 104.871 17.2209
      vertex -132.365 105.8 17.2209
    endloop
  endfacet
  facet normal 0 0 -1
    outer loop
      vertex -132.365 93.5186 17.2209
      vertex -136.08 93.7791 17.2209
      vertex -134.987 94.363 17.2209
    endloop
  endfacet
  facet normal 0 0 -1
    outer loop
      vertex -132.365 93.5186 17.2209
      vertex -134.987 94.363 17.2209
      vertex -134.029 95.1489 17.2209
    endloop
  endfacet
  facet normal -8.97119e-07 8.7083e-07 -1
    outer loop
      vertex -134.029 104.085 17.2209
      vertex -132.365 105.8 17.2209
      vertex -129.821 99.6593 17.2209
    endloop
  endfacet
  facet normal -1.32468e-05 -1.08706e-05 -1
    outer loop
      vertex -133.244 103.128 17.2209
      vertex -134.029 104.085 17.2209
      vertex -129.821 99.6593 17.2209
    endloop
  endfacet
  facet normal 0 0 -1
    outer loop
      vertex -129.821 99.6593 17.2209
      vertex -132.365 93.5186 17.2209
      vertex -134.029 95.1489 17.2209
    endloop
  endfacet
  facet normal 0 0 -1
    outer loop
      vertex -129.821 99.6593 17.2209
      vertex -134.029 95.1489 17.2209
      vertex -133.244 96.1064 17.2209
    endloop
  endfacet
  facet normal -4.8649e-06 -2.6004e-06 -1
    outer loop
      vertex -132.66 102.035 17.2209
      vertex -133.244 103.128 17.2209
      vertex -129.821 99.6593 17.2209
    endloop
  endfacet
  facet normal 3.61878e-06 7.53397e-06 -1
    outer loop
      vertex -132.3 100.85 17.2209
      vertex -132.66 102.035 17.2209
      vertex -129.821 99.6593 17.2209
    endloop
  endfacet
  facet normal 0 0 -1
    outer loop
      vertex -129.821 99.6593 17.2209
      vertex -133.244 96.1064 17.2209
      vertex -132.66 97.1989 17.2209
    endloop
  endfacet
  facet normal 0 0 -1
    outer loop
      vertex -129.821 99.6593 17.2209
      vertex -132.66 97.1989 17.2209
      vertex -132.3 98.3843 17.2209
    endloop
  endfacet
  facet normal 0 0 -1
    outer loop
      vertex -132.179 99.6171 17.2209
      vertex -132.3 100.85 17.2209
      vertex -129.821 99.6593 17.2209
    endloop
  endfacet
  facet normal 0 0 -1
    outer loop
      vertex -129.821 99.6593 17.2209
      vertex -132.3 98.3843 17.2209
      vertex -132.179 99.6171 17.2209
    endloop
  endfacet
  facet normal 0.995182 0.0980473 7.23209e-08
    outer loop
      vertex -129.821 99.6593 37.9077
      vertex -129.821 99.6593 17.2209
      vertex -129.988 101.354 17.2209
    endloop
  endfacet
  facet normal 0.995182 0.0980473 7.23209e-08
    outer loop
      vertex -129.988 101.354 17.2209
      vertex -129.988 101.354 37.9077
      vertex -129.821 99.6593 37.9077
    endloop
  endfacet
  facet normal 2.28289e-06 2.24734e-07 1
    outer loop
      vertex -142.106 98.9431 37.9077
      vertex -142.177 99.6593 37.9077
      vertex -147.19 99.6593 37.9077
    endloop
  endfacet
  facet normal 0 0 1
    outer loop
      vertex -147.19 99.6593 37.9077
      vertex -147.023 97.9652 37.9077
      vertex -146.529 96.336 37.9077
    endloop
  endfacet
  facet normal -2.66326e-05 -2.18575e-05 1
    outer loop
      vertex -146.529 96.336 37.9077
      vertex -145.726 94.8346 37.9077
      vertex -144.646 93.5186 37.9077
    endloop
  endfacet
  facet normal 0 0 1
    outer loop
      vertex -144.646 93.5186 37.9077
      vertex -143.33 92.4386 37.9077
      vertex -141.829 91.6361 37.9077
    endloop
  endfacet
  facet normal 0 0 1
    outer loop
      vertex -141.829 91.6361 37.9077
      vertex -140.2 91.1419 37.9077
      vertex -138.506 90.9751 37.9077
    endloop
  endfacet
  facet normal 0 0 1
    outer loop
      vertex -138.506 90.9751 37.9077
      vertex -136.811 91.1419 37.9077
      vertex -135.182 91.6361 37.9077
    endloop
  endfacet
  facet normal 0 0 1
    outer loop
      vertex -135.182 91.6361 37.9077
      vertex -133.681 92.4386 37.9077
      vertex -132.365 93.5186 37.9077
    endloop
  endfacet
  facet normal 0 0 1
    outer loop
      vertex -132.365 93.5186 37.9077
      vertex -131.285 94.8346 37.9077
      vertex -130.482 96.336 37.9077
    endloop
  endfacet
  facet normal 0 0 1
    outer loop
      vertex -130.482 96.336 37.9077
      vertex -129.988 97.9651 37.9077
      vertex -129.821 99.6593 37.9077
    endloop
  endfacet
  facet normal 0 0 1
    outer loop
      vertex -129.821 99.6593 37.9077
      vertex -134.834 99.6593 37.9077
      vertex -134.905 98.9431 37.9077
    endloop
  endfacet
  facet normal 0 0 1
    outer loop
      vertex -129.821 99.6593 37.9077
      vertex -134.905 98.9431 37.9077
      vertex -135.114 98.2544 37.9077
    endloop
  endfacet
  facet normal 0 0 1
    outer loop
      vertex -132.365 93.5186 37.9077
      vertex -130.482 96.336 37.9077
      vertex -129.821 99.6593 37.9077
    endloop
  endfacet
  facet normal 0 0 1
    outer loop
      vertex -138.506 90.9751 37.9077
      vertex -135.182 91.6361 37.9077
      vertex -132.365 93.5186 37.9077
    endloop
  endfacet
  facet normal 0 0 1
    outer loop
      vertex -144.646 93.5186 37.9077
      vertex -141.829 91.6361 37.9077
      vertex -138.506 90.9751 37.9077
    endloop
  endfacet
  facet normal 8.65591e-06 1.72177e-06 1
    outer loop
      vertex -147.19 99.6593 37.9077
      vertex -146.529 96.336 37.9077
      vertex -144.646 93.5186 37.9077
    endloop
  endfacet
  facet normal 2.35175e-06 7.13488e-07 1
    outer loop
      vertex -141.898 98.2544 37.9077
      vertex -142.106 98.9431 37.9077
      vertex -147.19 99.6593 37.9077
    endloop
  endfacet
  facet normal 2.51988e-06 1.34681e-06 1
    outer loop
      vertex -141.558 97.6196 37.9077
      vertex -141.898 98.2544 37.9077
      vertex -147.19 99.6593 37.9077
    endloop
  endfacet
  facet normal -9.3182e-07 -2.24962e-06 1
    outer loop
      vertex -147.19 99.6593 37.9077
      vertex -144.646 93.5186 37.9077
      vertex -138.506 90.9751 37.9077
    endloop
  endfacet
  facet normal 0 0 1
    outer loop
      vertex -138.506 90.9751 37.9077
      vertex -132.365 93.5186 37.9077
      vertex -129.821 99.6593 37.9077
    endloop
  endfacet
  facet normal 0 0 1
    outer loop
      vertex -129.821 99.6593 37.9077
      vertex -135.114 98.2544 37.9077
      vertex -135.453 97.6196 37.9077
    endloop
  endfacet
  facet normal 0 0 1
    outer loop
      vertex -129.821 99.6593 37.9077
      vertex -135.453 97.6196 37.9077
      vertex -135.91 97.0633 37.9077
    endloop
  endfacet
  facet normal 2.4377e-06 1.11991e-06 1
    outer loop
      vertex -141.558 97.6196 37.9077
      vertex -147.19 99.6593 37.9077
      vertex -138.506 90.9751 37.9077
    endloop
  endfacet
  facet normal 0 0 1
    outer loop
      vertex -141.102 97.0633 37.9077
      vertex -141.558 97.6196 37.9077
      vertex -138.506 90.9751 37.9077
    endloop
  endfacet
  facet normal 0 0 1
    outer loop
      vertex -138.506 90.9751 37.9077
      vertex -129.821 99.6593 37.9077
      vertex -135.91 97.0633 37.9077
    endloop
  endfacet
  facet normal 0 0 1
    outer loop
      vertex -138.506 90.9751 37.9077
      vertex -135.91 97.0633 37.9077
      vertex -136.466 96.6067 37.9077
    endloop
  endfacet
  facet normal 0 0 1
    outer loop
      vertex -140.545 96.6067 37.9077
      vertex -141.102 97.0633 37.9077
      vertex -138.506 90.9751 37.9077
    endloop
  endfacet
  facet normal 0 0 1
    outer loop
      vertex -139.911 96.2675 37.9077
      vertex -140.545 96.6067 37.9077
      vertex -138.506 90.9751 37.9077
    endloop
  endfacet
  facet normal 0 0 1
    outer loop
      vertex -138.506 90.9751 37.9077
      vertex -136.466 96.6067 37.9077
      vertex -137.101 96.2675 37.9077
    endloop
  endfacet
  facet normal 0 0 1
    outer loop
      vertex -138.506 90.9751 37.9077
      vertex -137.101 96.2675 37.9077
      vertex -137.789 96.0586 37.9077
    endloop
  endfacet
  facet normal 0 0 1
    outer loop
      vertex -139.222 96.0585 37.9077
      vertex -139.911 96.2675 37.9077
      vertex -138.506 90.9751 37.9077
    endloop
  endfacet
  facet normal 0 0 1
    outer loop
      vertex -138.506 90.9751 37.9077
      vertex -137.789 96.0586 37.9077
      vertex -138.506 95.988 37.9077
    endloop
  endfacet
  facet normal 0 -0 1
    outer loop
      vertex -138.506 90.9751 37.9077
      vertex -138.506 95.988 37.9077
      vertex -139.222 96.0585 37.9077
    endloop
  endfacet
  facet normal 0.956952 -0.290246 -2.14089e-07
    outer loop
      vertex -129.988 97.9651 17.2209
      vertex -129.988 97.9651 37.9077
      vertex -130.482 96.336 37.9077
    endloop
  endfacet
  facet normal 0.95695 -0.290252 -7.05859e-07
    outer loop
      vertex -130.482 96.336 37.9077
      vertex -130.482 96.336 17.2209
      vertex -129.988 97.9651 17.2209
    endloop
  endfacet
  facet normal -1.5015e-06 1.47877e-07 -1
    outer loop
      vertex -137.28 99.4155 17.2209
      vertex -137.256 99.6593 17.2209
      vertex -132.179 99.6171 17.2209
    endloop
  endfacet
  facet normal 0 0 -1
    outer loop
      vertex -132.179 99.6171 17.2209
      vertex -132.3 98.3843 17.2209
      vertex -132.66 97.1989 17.2209
    endloop
  endfacet
  facet normal 0 0 -1
    outer loop
      vertex -132.66 97.1989 17.2209
      vertex -133.244 96.1064 17.2209
      vertex -134.029 95.1489 17.2209
    endloop
  endfacet
  facet normal 0 0 -1
    outer loop
      vertex -134.029 95.1489 17.2209
      vertex -134.987 94.363 17.2209
      vertex -136.08 93.7791 17.2209
    endloop
  endfacet
  facet normal 0 0 -1
    outer loop
      vertex -136.08 93.7791 17.2209
      vertex -137.265 93.4195 17.2209
      vertex -138.498 93.2981 17.2209
    endloop
  endfacet
  facet normal 0 0 -1
    outer loop
      vertex -138.498 93.2981 17.2209
      vertex -139.731 93.4195 17.2209
      vertex -140.916 93.7791 17.2209
    endloop
  endfacet
  facet normal -1.50191e-05 -1.82999e-05 -1
    outer loop
      vertex -140.916 93.7791 17.2209
      vertex -142.008 94.363 17.2209
      vertex -142.966 95.1489 17.2209
    endloop
  endfacet
  facet normal -6.95754e-06 -3.7186e-06 -1
    outer loop
      vertex -142.966 95.1489 17.2209
      vertex -143.752 96.1064 17.2209
      vertex -144.336 97.1989 17.2209
    endloop
  endfacet
  facet normal 0 0 -1
    outer loop
      vertex -144.336 97.1989 17.2209
      vertex -144.695 98.3843 17.2209
      vertex -144.817 99.6171 17.2209
    endloop
  endfacet
  facet normal 0 0 -1
    outer loop
      vertex -144.817 99.6171 17.2209
      vertex -139.732 99.4155 17.2209
      vertex -139.661 99.181 17.2209
    endloop
  endfacet
  facet normal 0 0 -1
    outer loop
      vertex -144.817 99.6171 17.2209
      vertex -139.661 99.181 17.2209
      vertex -139.545 98.9649 17.2209
    endloop
  endfacet
  facet normal -1.98255e-06 -3.94334e-07 -1
    outer loop
      vertex -142.966 95.1489 17.2209
      vertex -144.336 97.1989 17.2209
      vertex -144.817 99.6171 17.2209
    endloop
  endfacet
  facet normal 1.18294e-06 5.94753e-06 -1
    outer loop
      vertex -138.498 93.2981 17.2209
      vertex -140.916 93.7791 17.2209
      vertex -142.966 95.1489 17.2209
    endloop
  endfacet
  facet normal 0 0 -1
    outer loop
      vertex -134.029 95.1489 17.2209
      vertex -136.08 93.7791 17.2209
      vertex -138.498 93.2981 17.2209
    endloop
  endfacet
  facet normal 0 0 -1
    outer loop
      vertex -132.179 99.6171 17.2209
      vertex -132.66 97.1989 17.2209
      vertex -134.029 95.1489 17.2209
    endloop
  endfacet
  facet normal -1.51382e-06 4.59257e-07 -1
    outer loop
      vertex -137.351 99.181 17.2209
      vertex -137.28 99.4155 17.2209
      vertex -132.179 99.6171 17.2209
    endloop
  endfacet
  facet normal -1.54471e-06 8.25635e-07 -1
    outer loop
      vertex -137.466 98.9649 17.2209
      vertex -137.351 99.181 17.2209
      vertex -132.179 99.6171 17.2209
    endloop
  endfacet
  facet normal 0 0 -1
    outer loop
      vertex -132.179 99.6171 17.2209
      vertex -134.029 95.1489 17.2209
      vertex -138.498 93.2981 17.2209
    endloop
  endfacet
  facet normal -1.3324e-06 -1.25033e-07 -1
    outer loop
      vertex -138.498 93.2981 17.2209
      vertex -142.966 95.1489 17.2209
      vertex -144.817 99.6171 17.2209
    endloop
  endfacet
  facet normal 0 0 -1
    outer loop
      vertex -144.817 99.6171 17.2209
      vertex -139.545 98.9649 17.2209
      vertex -139.39 98.7755 17.2209
    endloop
  endfacet
  facet normal 0 0 -1
    outer loop
      vertex -144.817 99.6171 17.2209
      vertex -139.39 98.7755 17.2209
      vertex -139.2 98.62 17.2209
    endloop
  endfacet
  facet normal -1.64589e-06 1.64588e-06 -1
    outer loop
      vertex -137.466 98.9649 17.2209
      vertex -132.179 99.6171 17.2209
      vertex -138.498 93.2981 17.2209
    endloop
  endfacet
  facet normal -2.10796e-06 1.72998e-06 -1
    outer loop
      vertex -137.622 98.7755 17.2209
      vertex -137.466 98.9649 17.2209
      vertex -138.498 93.2981 17.2209
    endloop
  endfacet
  facet normal 2.60622e-07 1.46799e-06 -1
    outer loop
      vertex -138.498 93.2981 17.2209
      vertex -144.817 99.6171 17.2209
      vertex -139.2 98.62 17.2209
    endloop
  endfacet
  facet normal 8.24526e-07 1.54242e-06 -1
    outer loop
      vertex -138.498 93.2981 17.2209
      vertex -139.2 98.62 17.2209
      vertex -138.984 98.5045 17.2209
    endloop
  endfacet
  facet normal -1.31581e-06 1.60331e-06 -1
    outer loop
      vertex -137.811 98.62 17.2209
      vertex -137.622 98.7755 17.2209
      vertex -138.498 93.2981 17.2209
    endloop
  endfacet
  facet normal -8.22976e-07 1.53974e-06 -1
    outer loop
      vertex -138.027 98.5045 17.2209
      vertex -137.811 98.62 17.2209
      vertex -138.498 93.2981 17.2209
    endloop
  endfacet
  facet normal 4.57472e-07 1.50813e-06 -1
    outer loop
      vertex -138.498 93.2981 17.2209
      vertex -138.984 98.5045 17.2209
      vertex -138.75 98.4334 17.2209
    endloop
  endfacet
  facet normal 1.47077e-07 1.4929e-06 -1
    outer loop
      vertex -138.498 93.2981 17.2209
      vertex -138.75 98.4334 17.2209
      vertex -138.506 98.4093 17.2209
    endloop
  endfacet
  facet normal -4.57063e-07 1.50668e-06 -1
    outer loop
      vertex -138.262 98.4334 17.2209
      vertex -138.027 98.5045 17.2209
      vertex -138.498 93.2981 17.2209
    endloop
  endfacet
  facet normal -1.4704e-07 1.49244e-06 -1
    outer loop
      vertex -138.498 93.2981 17.2209
      vertex -138.506 98.4093 17.2209
      vertex -138.262 98.4334 17.2209
    endloop
  endfacet
  facet normal 0 -0 -1
    outer loop
      vertex -139.756 99.6593 17.2209
      vertex -139.732 99.4155 17.2209
      vertex -144.817 99.6171 17.2209
    endloop
  endfacet
  facet normal 0 0 -1
    outer loop
      vertex -144.817 99.6171 17.2209
      vertex -144.695 100.85 17.2209
      vertex -144.336 102.035 17.2209
    endloop
  endfacet
  facet normal 0 0 -1
    outer loop
      vertex -144.336 102.035 17.2209
      vertex -143.752 103.128 17.2209
      vertex -142.966 104.085 17.2209
    endloop
  endfacet
  facet normal 0 0 -1
    outer loop
      vertex -142.966 104.085 17.2209
      vertex -142.008 104.871 17.2209
      vertex -140.916 105.455 17.2209
    endloop
  endfacet
  facet normal 0 0 -1
    outer loop
      vertex -140.916 105.455 17.2209
      vertex -139.731 105.815 17.2209
      vertex -138.498 105.936 17.2209
    endloop
  endfacet
  facet normal 0 0 -1
    outer loop
      vertex -138.498 105.936 17.2209
      vertex -137.265 105.815 17.2209
      vertex -136.08 105.455 17.2209
    endloop
  endfacet
  facet normal 0 0 -1
    outer loop
      vertex -136.08 105.455 17.2209
      vertex -134.987 104.871 17.2209
      vertex -134.029 104.085 17.2209
    endloop
  endfacet
  facet normal 0 0 -1
    outer loop
      vertex -134.029 104.085 17.2209
      vertex -133.244 103.128 17.2209
      vertex -132.66 102.035 17.2209
    endloop
  endfacet
  facet normal -3.14171e-05 -3.09382e-06 -1
    outer loop
      vertex -132.66 102.035 17.2209
      vertex -132.3 100.85 17.2209
      vertex -132.179 99.6171 17.2209
    endloop
  endfacet
  facet normal -1.50396e-06 -1.48124e-07 -1
    outer loop
      vertex -132.179 99.6171 17.2209
      vertex -137.256 99.6593 17.2209
      vertex -137.28 99.9032 17.2209
    endloop
  endfacet
  facet normal -1.52154e-06 -4.61556e-07 -1
    outer loop
      vertex -132.179 99.6171 17.2209
      vertex -137.28 99.9032 17.2209
      vertex -137.351 100.138 17.2209
    endloop
  endfacet
  facet normal 6.72355e-06 4.49236e-06 -1
    outer loop
      vertex -134.029 104.085 17.2209
      vertex -132.66 102.035 17.2209
      vertex -132.179 99.6171 17.2209
    endloop
  endfacet
  facet normal 0 0 -1
    outer loop
      vertex -138.498 105.936 17.2209
      vertex -136.08 105.455 17.2209
      vertex -134.029 104.085 17.2209
    endloop
  endfacet
  facet normal 0 0 -1
    outer loop
      vertex -142.966 104.085 17.2209
      vertex -140.916 105.455 17.2209
      vertex -138.498 105.936 17.2209
    endloop
  endfacet
  facet normal 0 0 -1
    outer loop
      vertex -144.817 99.6171 17.2209
      vertex -144.336 102.035 17.2209
      vertex -142.966 104.085 17.2209
    endloop
  endfacet
  facet normal 0 0 -1
    outer loop
      vertex -139.732 99.9032 17.2209
      vertex -139.756 99.6593 17.2209
      vertex -144.817 99.6171 17.2209
    endloop
  endfacet
  facet normal 0 0 -1
    outer loop
      vertex -139.661 100.138 17.2209
      vertex -139.732 99.9032 17.2209
      vertex -144.817 99.6171 17.2209
    endloop
  endfacet
  facet normal 0 0 -1
    outer loop
      vertex -144.817 99.6171 17.2209
      vertex -142.966 104.085 17.2209
      vertex -138.498 105.936 17.2209
    endloop
  endfacet
  facet normal 8.5373e-07 2.06109e-06 -1
    outer loop
      vertex -138.498 105.936 17.2209
      vertex -134.029 104.085 17.2209
      vertex -132.179 99.6171 17.2209
    endloop
  endfacet
  facet normal -1.55896e-06 -8.33307e-07 -1
    outer loop
      vertex -132.179 99.6171 17.2209
      vertex -137.351 100.138 17.2209
      vertex -137.466 100.354 17.2209
    endloop
  endfacet
  facet normal -1.62913e-06 -1.337e-06 -1
    outer loop
      vertex -132.179 99.6171 17.2209
      vertex -137.466 100.354 17.2209
      vertex -137.622 100.543 17.2209
    endloop
  endfacet
  facet normal -0 0 -1
    outer loop
      vertex -139.661 100.138 17.2209
      vertex -144.817 99.6171 17.2209
      vertex -138.498 105.936 17.2209
    endloop
  endfacet
  facet normal -0 0 -1
    outer loop
      vertex -139.545 100.354 17.2209
      vertex -139.661 100.138 17.2209
      vertex -138.498 105.936 17.2209
    endloop
  endfacet
  facet normal -1.44149e-06 -2.34112e-07 -1
    outer loop
      vertex -138.498 105.936 17.2209
      vertex -132.179 99.6171 17.2209
      vertex -137.622 100.543 17.2209
    endloop
  endfacet
  facet normal 0 0 -1
    outer loop
      vertex -138.498 105.936 17.2209
      vertex -137.622 100.543 17.2209
      vertex -137.811 100.699 17.2209
    endloop
  endfacet
  facet normal -0 0 -1
    outer loop
      vertex -139.39 100.543 17.2209
      vertex -139.545 100.354 17.2209
      vertex -138.498 105.936 17.2209
    endloop
  endfacet
  facet normal -0 0 -1
    outer loop
      vertex -139.2 100.699 17.2209
      vertex -139.39 100.543 17.2209
      vertex -138.498 105.936 17.2209
    endloop
  endfacet
  facet normal 0 0 -1
    outer loop
      vertex -138.498 105.936 17.2209
      vertex -137.811 100.699 17.2209
      vertex -138.027 100.814 17.2209
    endloop
  endfacet
  facet normal 0 0 -1
    outer loop
      vertex -138.498 105.936 17.2209
      vertex -138.027 100.814 17.2209
      vertex -138.262 100.885 17.2209
    endloop
  endfacet
  facet normal -0 0 -1
    outer loop
      vertex -138.984 100.814 17.2209
      vertex -139.2 100.699 17.2209
      vertex -138.498 105.936 17.2209
    endloop
  endfacet
  facet normal -0 0 -1
    outer loop
      vertex -138.75 100.885 17.2209
      vertex -138.984 100.814 17.2209
      vertex -138.498 105.936 17.2209
    endloop
  endfacet
  facet normal 0 -0 -1
    outer loop
      vertex -138.498 105.936 17.2209
      vertex -138.262 100.885 17.2209
      vertex -138.506 100.909 17.2209
    endloop
  endfacet
  facet normal -0 0 -1
    outer loop
      vertex -138.506 100.909 17.2209
      vertex -138.75 100.885 17.2209
      vertex -138.498 105.936 17.2209
    endloop
  endfacet
  facet normal 0 0 -1
    outer loop
      vertex -140.916 93.7791 17.2209
      vertex -139.731 93.4195 17.2209
      vertex -138.506 90.9751 17.2209
    endloop
  endfacet
  facet normal 0 0 -1
    outer loop
      vertex -138.506 90.9751 17.2209
      vertex -140.2 91.1419 17.2209
      vertex -141.829 91.6361 17.2209
    endloop
  endfacet
  facet normal 8.1207e-06 1.5193e-05 -1
    outer loop
      vertex -141.829 91.6361 17.2209
      vertex -143.33 92.4386 17.2209
      vertex -144.646 93.5186 17.2209
    endloop
  endfacet
  facet normal 4.43859e-06 3.64288e-06 -1
    outer loop
      vertex -144.646 93.5186 17.2209
      vertex -145.726 94.8346 17.2209
      vertex -146.529 96.336 17.2209
    endloop
  endfacet
  facet normal 0 0 -1
    outer loop
      vertex -146.529 96.336 17.2209
      vertex -147.023 97.9652 17.2209
      vertex -147.19 99.6593 17.2209
    endloop
  endfacet
  facet normal 0 0 -1
    outer loop
      vertex -147.19 99.6593 17.2209
      vertex -147.023 101.354 17.2209
      vertex -146.529 102.983 17.2209
    endloop
  endfacet
  facet normal 0 0 -1
    outer loop
      vertex -146.529 102.983 17.2209
      vertex -145.726 104.484 17.2209
      vertex -144.646 105.8 17.2209
    endloop
  endfacet
  facet normal 0 0 -1
    outer loop
      vertex -144.646 105.8 17.2209
      vertex -143.33 106.88 17.2209
      vertex -141.829 107.683 17.2209
    endloop
  endfacet
  facet normal 0 0 -1
    outer loop
      vertex -141.829 107.683 17.2209
      vertex -140.2 108.177 17.2209
      vertex -138.506 108.344 17.2209
    endloop
  endfacet
  facet normal 0 -0 -1
    outer loop
      vertex -138.506 108.344 17.2209
      vertex -138.498 105.936 17.2209
      vertex -139.731 105.815 17.2209
    endloop
  endfacet
  facet normal 0 0 -1
    outer loop
      vertex -138.506 108.344 17.2209
      vertex -139.731 105.815 17.2209
      vertex -140.916 105.455 17.2209
    endloop
  endfacet
  facet normal 0 0 -1
    outer loop
      vertex -144.646 105.8 17.2209
      vertex -141.829 107.683 17.2209
      vertex -138.506 108.344 17.2209
    endloop
  endfacet
  facet normal 0 0 -1
    outer loop
      vertex -147.19 99.6593 17.2209
      vertex -146.529 102.983 17.2209
      vertex -144.646 105.8 17.2209
    endloop
  endfacet
  facet normal -1.44258e-06 -2.86934e-07 -1
    outer loop
      vertex -144.646 93.5186 17.2209
      vertex -146.529 96.336 17.2209
      vertex -147.19 99.6593 17.2209
    endloop
  endfacet
  facet normal 8.60857e-07 4.32792e-06 -1
    outer loop
      vertex -138.506 90.9751 17.2209
      vertex -141.829 91.6361 17.2209
      vertex -144.646 93.5186 17.2209
    endloop
  endfacet
  facet normal -9.68913e-06 -8.32826e-06 -1
    outer loop
      vertex -142.008 94.363 17.2209
      vertex -140.916 93.7791 17.2209
      vertex -138.506 90.9751 17.2209
    endloop
  endfacet
  facet normal 9.15014e-06 1.11489e-05 -1
    outer loop
      vertex -142.966 95.1489 17.2209
      vertex -142.008 94.363 17.2209
      vertex -138.506 90.9751 17.2209
    endloop
  endfacet
  facet normal 0 0 -1
    outer loop
      vertex -144.646 105.8 17.2209
      vertex -138.506 108.344 17.2209
      vertex -140.916 105.455 17.2209
    endloop
  endfacet
  facet normal 0 0 -1
    outer loop
      vertex -144.646 105.8 17.2209
      vertex -140.916 105.455 17.2209
      vertex -142.008 104.871 17.2209
    endloop
  endfacet
  facet normal -6.53006e-07 6.73126e-07 -1
    outer loop
      vertex -142.966 95.1489 17.2209
      vertex -138.506 90.9751 17.2209
      vertex -144.646 93.5186 17.2209
    endloop
  endfacet
  facet normal -1.0758e-06 1.10894e-06 -1
    outer loop
      vertex -143.752 96.1064 17.2209
      vertex -142.966 95.1489 17.2209
      vertex -144.646 93.5186 17.2209
    endloop
  endfacet
  facet normal 0 0 -1
    outer loop
      vertex -144.646 105.8 17.2209
      vertex -142.008 104.871 17.2209
      vertex -142.966 104.085 17.2209
    endloop
  endfacet
  facet normal 0 0 -1
    outer loop
      vertex -144.646 105.8 17.2209
      vertex -142.966 104.085 17.2209
      vertex -143.752 103.128 17.2209
    endloop
  endfacet
  facet normal 5.61182e-07 5.43058e-07 -1
    outer loop
      vertex -143.752 96.1064 17.2209
      vertex -144.646 93.5186 17.2209
      vertex -147.19 99.6593 17.2209
    endloop
  endfacet
  facet normal -0 -0 -1
    outer loop
      vertex -144.336 97.1989 17.2209
      vertex -143.752 96.1064 17.2209
      vertex -147.19 99.6593 17.2209
    endloop
  endfacet
  facet normal 0 0 -1
    outer loop
      vertex -147.19 99.6593 17.2209
      vertex -144.646 105.8 17.2209
      vertex -143.752 103.128 17.2209
    endloop
  endfacet
  facet normal 0 0 -1
    outer loop
      vertex -147.19 99.6593 17.2209
      vertex -143.752 103.128 17.2209
      vertex -144.336 102.035 17.2209
    endloop
  endfacet
  facet normal -0 -0 -1
    outer loop
      vertex -144.695 98.3843 17.2209
      vertex -144.336 97.1989 17.2209
      vertex -147.19 99.6593 17.2209
    endloop
  endfacet
  facet normal -0 -0 -1
    outer loop
      vertex -144.817 99.6171 17.2209
      vertex -144.695 98.3843 17.2209
      vertex -147.19 99.6593 17.2209
    endloop
  endfacet
  facet normal 0 0 -1
    outer loop
      vertex -147.19 99.6593 17.2209
      vertex -144.336 102.035 17.2209
      vertex -144.695 100.85 17.2209
    endloop
  endfacet
  facet normal 0 0 -1
    outer loop
      vertex -144.695 100.85 17.2209
      vertex -144.817 99.6171 17.2209
      vertex -147.19 99.6593 17.2209
    endloop
  endfacet
  facet normal 0.0980181 0.995185 -0
    outer loop
      vertex -138.506 108.344 17.2209
      vertex -138.506 108.344 37.9077
      vertex -136.811 108.177 37.9077
    endloop
  endfacet
  facet normal 0.0980181 0.995185 0
    outer loop
      vertex -136.811 108.177 37.9077
      vertex -136.811 108.177 17.2209
      vertex -138.506 108.344 17.2209
    endloop
  endfacet
  facet normal 0.290307 0.956934 -0
    outer loop
      vertex -136.811 108.177 17.2209
      vertex -136.811 108.177 37.9077
      vertex -135.182 107.683 37.9077
    endloop
  endfacet
  facet normal 0.290309 0.956933 -2.14136e-07
    outer loop
      vertex -135.182 107.683 37.9077
      vertex -135.182 107.683 17.2209
      vertex -136.811 108.177 17.2209
    endloop
  endfacet
  facet normal 0.47137 0.881935 -3.47689e-07
    outer loop
      vertex -135.182 107.683 17.2209
      vertex -135.182 107.683 37.9077
      vertex -133.681 106.88 37.9077
    endloop
  endfacet
  facet normal 0.471367 0.881937 -2.24221e-08
    outer loop
      vertex -133.681 106.88 37.9077
      vertex -133.681 106.88 17.2209
      vertex -135.182 107.683 17.2209
    endloop
  endfacet
  facet normal 0.634415 0.772993 -1.82868e-07
    outer loop
      vertex -133.681 106.88 17.2209
      vertex -133.681 106.88 37.9077
      vertex -132.365 105.8 37.9077
    endloop
  endfacet
  facet normal 0.63441 0.772996 2.85086e-07
    outer loop
      vertex -132.365 105.8 37.9077
      vertex -132.365 105.8 17.2209
      vertex -133.681 106.88 17.2209
    endloop
  endfacet
  facet normal 0.773013 0.63439 2.33967e-07
    outer loop
      vertex -132.365 105.8 17.2209
      vertex -132.365 105.8 37.9077
      vertex -131.285 104.484 37.9077
    endloop
  endfacet
  facet normal 0.773008 0.634397 9.35878e-07
    outer loop
      vertex -131.285 104.484 37.9077
      vertex -131.285 104.484 17.2209
      vertex -132.365 105.8 17.2209
    endloop
  endfacet
  facet normal 0.881907 0.471423 6.95455e-07
    outer loop
      vertex -131.285 104.484 17.2209
      vertex -131.285 104.484 37.9077
      vertex -130.482 102.983 37.9077
    endloop
  endfacet
  facet normal 0.881915 0.471409 -6.50512e-07
    outer loop
      vertex -130.482 102.983 37.9077
      vertex -130.482 102.983 17.2209
      vertex -131.285 104.484 17.2209
    endloop
  endfacet
  facet normal 0.956954 0.29024 -7.05861e-07
    outer loop
      vertex -130.482 102.983 17.2209
      vertex -130.482 102.983 37.9077
      vertex -129.988 101.354 37.9077
    endloop
  endfacet
  facet normal 0.956951 0.290251 2.14093e-07
    outer loop
      vertex -129.988 101.354 37.9077
      vertex -129.988 101.354 17.2209
      vertex -130.482 102.983 17.2209
    endloop
  endfacet
  facet normal 0.881906 -0.471425 -6.50505e-07
    outer loop
      vertex -130.482 96.336 17.2209
      vertex -130.482 96.336 37.9077
      vertex -131.285 94.8346 37.9077
    endloop
  endfacet
  facet normal 0.88191 -0.471418 0
    outer loop
      vertex -131.285 94.8346 37.9077
      vertex -131.285 94.8346 17.2209
      vertex -130.482 96.336 17.2209
    endloop
  endfacet
  facet normal 0.773013 -0.63439 0
    outer loop
      vertex -131.285 94.8346 17.2209
      vertex -131.285 94.8346 37.9077
      vertex -132.365 93.5186 37.9077
    endloop
  endfacet
  facet normal 0.77301 -0.634394 -4.67937e-07
    outer loop
      vertex -132.365 93.5186 37.9077
      vertex -132.365 93.5186 17.2209
      vertex -131.285 94.8346 17.2209
    endloop
  endfacet
  facet normal 0.634407 -0.772999 -5.70174e-07
    outer loop
      vertex -132.365 93.5186 17.2209
      vertex -132.365 93.5186 37.9077
      vertex -133.681 92.4386 37.9077
    endloop
  endfacet
  facet normal 0.6344 -0.773005 -1.32321e-06
    outer loop
      vertex -133.681 92.4386 37.9077
      vertex -133.681 92.4386 17.2209
      vertex -132.365 93.5186 17.2209
    endloop
  endfacet
  facet normal 0.471391 -0.881924 -1.32348e-06
    outer loop
      vertex -133.681 92.4386 17.2209
      vertex -133.681 92.4386 37.9077
      vertex -135.182 91.6361 37.9077
    endloop
  endfacet
  facet normal 0.471395 -0.881922 -9.98224e-07
    outer loop
      vertex -135.182 91.6361 37.9077
      vertex -135.182 91.6361 17.2209
      vertex -133.681 92.4386 17.2209
    endloop
  endfacet
  facet normal 0.290294 -0.956937 -9.19974e-07
    outer loop
      vertex -135.182 91.6361 17.2209
      vertex -135.182 91.6361 37.9077
      vertex -136.811 91.1419 37.9077
    endloop
  endfacet
  facet normal 0.290305 -0.956934 0
    outer loop
      vertex -136.811 91.1419 37.9077
      vertex -136.811 91.1419 17.2209
      vertex -135.182 91.6361 17.2209
    endloop
  endfacet
  facet normal 0.0979959 -0.995187 0
    outer loop
      vertex -136.811 91.1419 17.2209
      vertex -136.811 91.1419 37.9077
      vertex -138.506 90.9751 37.9077
    endloop
  endfacet
  facet normal 0.097987 -0.995188 -7.34063e-07
    outer loop
      vertex -138.506 90.9751 37.9077
      vertex -138.506 90.9751 17.2209
      vertex -136.811 91.1419 17.2209
    endloop
  endfacet
  facet normal 0 0 1
    outer loop
      vertex -134.905 100.376 37.9077
      vertex -134.834 99.6593 37.9077
      vertex -129.821 99.6593 37.9077
    endloop
  endfacet
  facet normal 0 0 1
    outer loop
      vertex -129.821 99.6593 37.9077
      vertex -129.988 101.354 37.9077
      vertex -130.482 102.983 37.9077
    endloop
  endfacet
  facet normal -8.88005e-06 -7.28761e-06 1
    outer loop
      vertex -130.482 102.983 37.9077
      vertex -131.285 104.484 37.9077
      vertex -132.365 105.8 37.9077
    endloop
  endfacet
  facet normal -1.62375e-05 -3.03803e-05 1
    outer loop
      vertex -132.365 105.8 37.9077
      vertex -133.681 106.88 37.9077
      vertex -135.182 107.683 37.9077
    endloop
  endfacet
  facet normal 0 0 1
    outer loop
      vertex -135.182 107.683 37.9077
      vertex -136.811 108.177 37.9077
      vertex -138.506 108.344 37.9077
    endloop
  endfacet
  facet normal 0 0 1
    outer loop
      vertex -138.506 108.344 37.9077
      vertex -140.2 108.177 37.9077
      vertex -141.829 107.683 37.9077
    endloop
  endfacet
  facet normal 0 0 1
    outer loop
      vertex -141.829 107.683 37.9077
      vertex -143.33 106.88 37.9077
      vertex -144.646 105.8 37.9077
    endloop
  endfacet
  facet normal 8.8774e-06 -7.28574e-06 1
    outer loop
      vertex -144.646 105.8 37.9077
      vertex -145.726 104.484 37.9077
      vertex -146.529 102.983 37.9077
    endloop
  endfacet
  facet normal 0 0 1
    outer loop
      vertex -146.529 102.983 37.9077
      vertex -147.023 101.354 37.9077
      vertex -147.19 99.6593 37.9077
    endloop
  endfacet
  facet normal 2.28289e-06 -2.24743e-07 1
    outer loop
      vertex -147.19 99.6593 37.9077
      vertex -142.177 99.6593 37.9077
      vertex -142.106 100.376 37.9077
    endloop
  endfacet
  facet normal 2.35175e-06 -7.1347e-07 1
    outer loop
      vertex -147.19 99.6593 37.9077
      vertex -142.106 100.376 37.9077
      vertex -141.898 101.064 37.9077
    endloop
  endfacet
  facet normal -2.88531e-06 5.73928e-07 1
    outer loop
      vertex -144.646 105.8 37.9077
      vertex -146.529 102.983 37.9077
      vertex -147.19 99.6593 37.9077
    endloop
  endfacet
  facet normal 0 0 1
    outer loop
      vertex -138.506 108.344 37.9077
      vertex -141.829 107.683 37.9077
      vertex -144.646 105.8 37.9077
    endloop
  endfacet
  facet normal -1.72194e-06 -8.65628e-06 1
    outer loop
      vertex -132.365 105.8 37.9077
      vertex -135.182 107.683 37.9077
      vertex -138.506 108.344 37.9077
    endloop
  endfacet
  facet normal 2.88519e-06 5.73877e-07 1
    outer loop
      vertex -129.821 99.6593 37.9077
      vertex -130.482 102.983 37.9077
      vertex -132.365 105.8 37.9077
    endloop
  endfacet
  facet normal 0 0 1
    outer loop
      vertex -135.114 101.064 37.9077
      vertex -134.905 100.376 37.9077
      vertex -129.821 99.6593 37.9077
    endloop
  endfacet
  facet normal 0 0 1
    outer loop
      vertex -135.453 101.699 37.9077
      vertex -135.114 101.064 37.9077
      vertex -129.821 99.6593 37.9077
    endloop
  endfacet
  facet normal 1.93901e-06 1.81954e-07 1
    outer loop
      vertex -129.821 99.6593 37.9077
      vertex -132.365 105.8 37.9077
      vertex -138.506 108.344 37.9077
    endloop
  endfacet
  facet normal 3.10613e-07 -7.49876e-07 1
    outer loop
      vertex -138.506 108.344 37.9077
      vertex -144.646 105.8 37.9077
      vertex -147.19 99.6593 37.9077
    endloop
  endfacet
  facet normal 2.51987e-06 -1.34679e-06 1
    outer loop
      vertex -147.19 99.6593 37.9077
      vertex -141.898 101.064 37.9077
      vertex -141.558 101.699 37.9077
    endloop
  endfacet
  facet normal 2.89161e-06 -2.37318e-06 1
    outer loop
      vertex -147.19 99.6593 37.9077
      vertex -141.558 101.699 37.9077
      vertex -141.102 102.255 37.9077
    endloop
  endfacet
  facet normal -9.97717e-07 -2.75477e-06 1
    outer loop
      vertex -135.453 101.699 37.9077
      vertex -129.821 99.6593 37.9077
      vertex -138.506 108.344 37.9077
    endloop
  endfacet
  facet normal -6.3577e-06 -5.21718e-06 1
    outer loop
      vertex -135.91 102.255 37.9077
      vertex -135.453 101.699 37.9077
      vertex -138.506 108.344 37.9077
    endloop
  endfacet
  facet normal 3.60352e-06 -4.04278e-06 1
    outer loop
      vertex -138.506 108.344 37.9077
      vertex -147.19 99.6593 37.9077
      vertex -141.102 102.255 37.9077
    endloop
  endfacet
  facet normal 3.16396e-06 -3.85535e-06 1
    outer loop
      vertex -138.506 108.344 37.9077
      vertex -141.102 102.255 37.9077
      vertex -140.545 102.712 37.9077
    endloop
  endfacet
  facet normal -3.16396e-06 -3.85537e-06 1
    outer loop
      vertex -136.466 102.712 37.9077
      vertex -135.91 102.255 37.9077
      vertex -138.506 108.344 37.9077
    endloop
  endfacet
  facet normal -1.79589e-06 -3.35988e-06 1
    outer loop
      vertex -137.101 103.051 37.9077
      vertex -136.466 102.712 37.9077
      vertex -138.506 108.344 37.9077
    endloop
  endfacet
  facet normal 1.79588e-06 -3.35987e-06 1
    outer loop
      vertex -138.506 108.344 37.9077
      vertex -140.545 102.712 37.9077
      vertex -139.911 103.051 37.9077
    endloop
  endfacet
  facet normal 9.51227e-07 -3.13565e-06 1
    outer loop
      vertex -138.506 108.344 37.9077
      vertex -139.911 103.051 37.9077
      vertex -139.222 103.26 37.9077
    endloop
  endfacet
  facet normal -9.51099e-07 -3.13562e-06 1
    outer loop
      vertex -137.789 103.26 37.9077
      vertex -137.101 103.051 37.9077
      vertex -138.506 108.344 37.9077
    endloop
  endfacet
  facet normal 2.99716e-07 -3.04385e-06 1
    outer loop
      vertex -138.506 108.344 37.9077
      vertex -139.222 103.26 37.9077
      vertex -138.506 103.331 37.9077
    endloop
  endfacet
  facet normal -2.99762e-07 -3.04385e-06 1
    outer loop
      vertex -138.506 103.331 37.9077
      vertex -137.789 103.26 37.9077
      vertex -138.506 108.344 37.9077
    endloop
  endfacet
  facet normal -0.881935 -0.47137 0
    outer loop
      vertex -141.898 98.2544 37.9077
      vertex -141.558 97.6196 37.9077
      vertex -141.558 97.6196 40.7778
    endloop
  endfacet
  facet normal -0.881935 -0.47137 0
    outer loop
      vertex -141.558 97.6196 40.7778
      vertex -141.898 98.2544 40.7778
      vertex -141.898 98.2544 37.9077
    endloop
  endfacet
  facet normal -0.95693 -0.290319 0
    outer loop
      vertex -142.106 98.9431 37.9077
      vertex -141.898 98.2544 37.9077
      vertex -141.898 98.2544 40.7778
    endloop
  endfacet
  facet normal -0.95693 -0.290319 0
    outer loop
      vertex -141.898 98.2544 40.7778
      vertex -142.106 98.9431 40.7778
      vertex -142.106 98.9431 37.9077
    endloop
  endfacet
  facet normal -0.995189 -0.0979692 0
    outer loop
      vertex -142.177 99.6593 37.9077
      vertex -142.106 98.9431 37.9077
      vertex -142.106 98.9431 40.7778
    endloop
  endfacet
  facet normal -0.995189 -0.0979692 0
    outer loop
      vertex -142.106 98.9431 40.7778
      vertex -142.177 99.6593 40.7778
      vertex -142.177 99.6593 37.9077
    endloop
  endfacet
  facet normal -0.995185 -0.0980131 6.97913e-07
    outer loop
      vertex -147.023 97.9652 17.2209
      vertex -147.023 97.9652 37.9077
      vertex -147.19 99.6593 37.9077
    endloop
  endfacet
  facet normal -0.995186 -0.0980038 -7.22888e-08
    outer loop
      vertex -147.19 99.6593 37.9077
      vertex -147.19 99.6593 17.2209
      vertex -147.023 97.9652 17.2209
    endloop
  endfacet
  facet normal -0.956941 -0.290283 1.4117e-06
    outer loop
      vertex -146.529 96.336 17.2209
      vertex -146.529 96.336 37.9077
      vertex -147.023 97.9652 37.9077
    endloop
  endfacet
  facet normal -0.956944 -0.290274 5.98799e-07
    outer loop
      vertex -147.023 97.9652 37.9077
      vertex -147.023 97.9652 17.2209
      vertex -146.529 96.336 17.2209
    endloop
  endfacet
  facet normal -0.881925 -0.47139 6.50519e-07
    outer loop
      vertex -145.726 94.8346 17.2209
      vertex -145.726 94.8346 37.9077
      vertex -146.529 96.336 37.9077
    endloop
  endfacet
  facet normal -0.881921 -0.471397 1.30103e-06
    outer loop
      vertex -146.529 96.336 37.9077
      vertex -146.529 96.336 17.2209
      vertex -145.726 94.8346 17.2209
    endloop
  endfacet
  facet normal -0.773 -0.634406 -4.67946e-07
    outer loop
      vertex -144.646 93.5186 17.2209
      vertex -144.646 93.5186 37.9077
      vertex -145.726 94.8346 37.9077
    endloop
  endfacet
  facet normal -0.772992 -0.634416 5.70169e-07
    outer loop
      vertex -145.726 94.8346 37.9077
      vertex -145.726 94.8346 17.2209
      vertex -144.646 93.5186 17.2209
    endloop
  endfacet
  facet normal -0.634398 -0.773007 8.06108e-08
    outer loop
      vertex -143.33 92.4386 17.2209
      vertex -143.33 92.4386 37.9077
      vertex -144.646 93.5186 37.9077
    endloop
  endfacet
  facet normal -0.634404 -0.773002 -5.70176e-07
    outer loop
      vertex -144.646 93.5186 37.9077
      vertex -144.646 93.5186 17.2209
      vertex -143.33 92.4386 17.2209
    endloop
  endfacet
  facet normal -0.471395 -0.881922 -6.50517e-07
    outer loop
      vertex -141.829 91.6361 17.2209
      vertex -141.829 91.6361 37.9077
      vertex -143.33 92.4386 37.9077
    endloop
  endfacet
  facet normal -0.471391 -0.881924 -2.8037e-07
    outer loop
      vertex -143.33 92.4386 37.9077
      vertex -143.33 92.4386 17.2209
      vertex -141.829 91.6361 17.2209
    endloop
  endfacet
  facet normal -0.290294 -0.956937 0
    outer loop
      vertex -140.2 91.1419 17.2209
      vertex -140.2 91.1419 37.9077
      vertex -141.829 91.6361 37.9077
    endloop
  endfacet
  facet normal -0.290303 -0.956935 -7.05847e-07
    outer loop
      vertex -141.829 91.6361 37.9077
      vertex -141.829 91.6361 17.2209
      vertex -140.2 91.1419 17.2209
    endloop
  endfacet
  facet normal -0.0979976 -0.995187 -7.34062e-07
    outer loop
      vertex -138.506 90.9751 17.2209
      vertex -138.506 90.9751 37.9077
      vertex -140.2 91.1419 37.9077
    endloop
  endfacet
  facet normal -0.0979888 -0.995188 -0
    outer loop
      vertex -140.2 91.1419 37.9077
      vertex -140.2 91.1419 17.2209
      vertex -138.506 90.9751 17.2209
    endloop
  endfacet
  facet normal 0.995187 -0.0979902 0
    outer loop
      vertex -134.905 98.9431 37.9077
      vertex -134.834 99.6593 37.9077
      vertex -134.834 99.6593 40.7778
    endloop
  endfacet
  facet normal 0.995187 -0.0979902 0
    outer loop
      vertex -134.834 99.6593 40.7778
      vertex -134.905 98.9431 40.7778
      vertex -134.905 98.9431 37.9077
    endloop
  endfacet
  facet normal 0.956942 -0.29028 0
    outer loop
      vertex -135.114 98.2544 37.9077
      vertex -134.905 98.9431 37.9077
      vertex -134.905 98.9431 40.7778
    endloop
  endfacet
  facet normal 0.956942 -0.29028 0
    outer loop
      vertex -134.905 98.9431 40.7778
      vertex -135.114 98.2544 40.7778
      vertex -135.114 98.2544 37.9077
    endloop
  endfacet
  facet normal 0.881909 -0.47142 0
    outer loop
      vertex -135.453 97.6196 37.9077
      vertex -135.114 98.2544 37.9077
      vertex -135.114 98.2544 40.7778
    endloop
  endfacet
  facet normal 0.881909 -0.47142 0
    outer loop
      vertex -135.114 98.2544 40.7778
      vertex -135.453 97.6196 40.7778
      vertex -135.453 97.6196 37.9077
    endloop
  endfacet
  facet normal 0.773006 -0.634399 0
    outer loop
      vertex -135.91 97.0633 37.9077
      vertex -135.453 97.6196 37.9077
      vertex -135.453 97.6196 40.7778
    endloop
  endfacet
  facet normal 0.773006 -0.634399 0
    outer loop
      vertex -135.453 97.6196 40.7778
      vertex -135.91 97.0633 40.7778
      vertex -135.91 97.0633 37.9077
    endloop
  endfacet
  facet normal 0.634417 -0.772991 0
    outer loop
      vertex -136.466 96.6067 37.9077
      vertex -135.91 97.0633 37.9077
      vertex -135.91 97.0633 40.7778
    endloop
  endfacet
  facet normal 0.634417 -0.772991 0
    outer loop
      vertex -135.91 97.0633 40.7778
      vertex -136.466 96.6067 40.7778
      vertex -136.466 96.6067 37.9077
    endloop
  endfacet
  facet normal 0.471395 -0.881922 0
    outer loop
      vertex -137.101 96.2675 37.9077
      vertex -136.466 96.6067 37.9077
      vertex -136.466 96.6067 40.7778
    endloop
  endfacet
  facet normal 0.471395 -0.881922 0
    outer loop
      vertex -136.466 96.6067 40.7778
      vertex -137.101 96.2675 40.7778
      vertex -137.101 96.2675 37.9077
    endloop
  endfacet
  facet normal 0.290243 -0.956953 0
    outer loop
      vertex -137.789 96.0586 37.9077
      vertex -137.101 96.2675 37.9077
      vertex -137.101 96.2675 40.7778
    endloop
  endfacet
  facet normal 0.290243 -0.956953 0
    outer loop
      vertex -137.101 96.2675 40.7778
      vertex -137.789 96.0586 40.7778
      vertex -137.789 96.0586 37.9077
    endloop
  endfacet
  facet normal 0.0980279 -0.995184 0
    outer loop
      vertex -138.506 95.988 37.9077
      vertex -137.789 96.0586 37.9077
      vertex -137.789 96.0586 40.7778
    endloop
  endfacet
  facet normal 0.0980279 -0.995184 0
    outer loop
      vertex -137.789 96.0586 40.7778
      vertex -138.506 95.988 40.7778
      vertex -138.506 95.988 37.9077
    endloop
  endfacet
  facet normal -0.0979922 -0.995187 0
    outer loop
      vertex -139.222 96.0585 37.9077
      vertex -138.506 95.988 37.9077
      vertex -138.506 95.988 40.7778
    endloop
  endfacet
  facet normal -0.0979922 -0.995187 0
    outer loop
      vertex -138.506 95.988 40.7778
      vertex -139.222 96.0585 40.7778
      vertex -139.222 96.0585 37.9077
    endloop
  endfacet
  facet normal -0.290295 -0.956937 0
    outer loop
      vertex -139.911 96.2675 37.9077
      vertex -139.222 96.0585 37.9077
      vertex -139.222 96.0585 40.7778
    endloop
  endfacet
  facet normal -0.290295 -0.956937 0
    outer loop
      vertex -139.222 96.0585 40.7778
      vertex -139.911 96.2675 40.7778
      vertex -139.911 96.2675 37.9077
    endloop
  endfacet
  facet normal -0.471395 -0.881922 0
    outer loop
      vertex -140.545 96.6067 37.9077
      vertex -139.911 96.2675 37.9077
      vertex -139.911 96.2675 40.7778
    endloop
  endfacet
  facet normal -0.471395 -0.881922 0
    outer loop
      vertex -139.911 96.2675 40.7778
      vertex -140.545 96.6067 40.7778
      vertex -140.545 96.6067 37.9077
    endloop
  endfacet
  facet normal -0.634407 -0.773 0
    outer loop
      vertex -141.102 97.0633 37.9077
      vertex -140.545 96.6067 37.9077
      vertex -140.545 96.6067 40.7778
    endloop
  endfacet
  facet normal -0.634407 -0.773 0
    outer loop
      vertex -140.545 96.6067 40.7778
      vertex -141.102 97.0633 40.7778
      vertex -141.102 97.0633 37.9077
    endloop
  endfacet
  facet normal -0.772985 -0.634424 0
    outer loop
      vertex -141.558 97.6196 37.9077
      vertex -141.102 97.0633 37.9077
      vertex -141.102 97.0633 40.7778
    endloop
  endfacet
  facet normal -0.772985 -0.634424 0
    outer loop
      vertex -141.102 97.0633 40.7778
      vertex -141.558 97.6196 40.7778
      vertex -141.558 97.6196 37.9077
    endloop
  endfacet
  facet normal -0.995185 0.0980096 7.22931e-08
    outer loop
      vertex -147.19 99.6593 17.2209
      vertex -147.19 99.6593 37.9077
      vertex -147.023 101.354 37.9077
    endloop
  endfacet
  facet normal -0.995186 0.0980008 8.06348e-07
    outer loop
      vertex -147.023 101.354 37.9077
      vertex -147.023 101.354 17.2209
      vertex -147.19 99.6593 17.2209
    endloop
  endfacet
  facet normal -0.956937 0.290296 9.19974e-07
    outer loop
      vertex -147.023 101.354 17.2209
      vertex -147.023 101.354 37.9077
      vertex -146.529 102.983 37.9077
    endloop
  endfacet
  facet normal -0.956939 0.29029 1.4117e-06
    outer loop
      vertex -146.529 102.983 37.9077
      vertex -146.529 102.983 17.2209
      vertex -147.023 101.354 17.2209
    endloop
  endfacet
  facet normal -0.881926 0.471388 1.30104e-06
    outer loop
      vertex -146.529 102.983 17.2209
      vertex -146.529 102.983 37.9077
      vertex -145.726 104.484 37.9077
    endloop
  endfacet
  facet normal -0.881926 0.471388 1.34592e-06
    outer loop
      vertex -145.726 104.484 37.9077
      vertex -145.726 104.484 17.2209
      vertex -146.529 102.983 17.2209
    endloop
  endfacet
  facet normal -0.773 0.634406 1.50607e-06
    outer loop
      vertex -145.726 104.484 17.2209
      vertex -145.726 104.484 37.9077
      vertex -144.646 105.8 37.9077
    endloop
  endfacet
  facet normal -0.772995 0.634413 8.04146e-07
    outer loop
      vertex -144.646 105.8 37.9077
      vertex -144.646 105.8 17.2209
      vertex -145.726 104.484 17.2209
    endloop
  endfacet
  facet normal -0.634415 0.772993 7.53037e-07
    outer loop
      vertex -144.646 105.8 17.2209
      vertex -144.646 105.8 37.9077
      vertex -143.33 106.88 37.9077
    endloop
  endfacet
  facet normal -0.63441 0.772996 2.85086e-07
    outer loop
      vertex -143.33 106.88 37.9077
      vertex -143.33 106.88 17.2209
      vertex -144.646 105.8 17.2209
    endloop
  endfacet
  facet normal -0.471391 0.881924 3.25259e-07
    outer loop
      vertex -143.33 106.88 17.2209
      vertex -143.33 106.88 37.9077
      vertex -141.829 107.683 37.9077
    endloop
  endfacet
  facet normal -0.471394 0.881922 6.50517e-07
    outer loop
      vertex -141.829 107.683 37.9077
      vertex -141.829 107.683 17.2209
      vertex -143.33 106.88 17.2209
    endloop
  endfacet
  facet normal -0.290278 0.956942 7.05852e-07
    outer loop
      vertex -141.829 107.683 17.2209
      vertex -141.829 107.683 37.9077
      vertex -140.2 108.177 37.9077
    endloop
  endfacet
  facet normal -0.29027 0.956945 0
    outer loop
      vertex -140.2 108.177 37.9077
      vertex -140.2 108.177 17.2209
      vertex -141.829 107.683 17.2209
    endloop
  endfacet
  facet normal -0.0980198 0.995184 0
    outer loop
      vertex -140.2 108.177 17.2209
      vertex -140.2 108.177 37.9077
      vertex -138.506 108.344 37.9077
    endloop
  endfacet
  facet normal -0.0980198 0.995184 0
    outer loop
      vertex -138.506 108.344 37.9077
      vertex -138.506 108.344 17.2209
      vertex -140.2 108.177 17.2209
    endloop
  endfacet
  facet normal -0.995189 0.0979733 0
    outer loop
      vertex -142.106 100.376 37.9077
      vertex -142.177 99.6593 37.9077
      vertex -142.177 99.6593 40.7778
    endloop
  endfacet
  facet normal -0.995189 0.0979733 0
    outer loop
      vertex -142.177 99.6593 40.7778
      vertex -142.106 100.376 40.7778
      vertex -142.106 100.376 37.9077
    endloop
  endfacet
  facet normal -0.956932 0.290313 0
    outer loop
      vertex -141.898 101.064 37.9077
      vertex -142.106 100.376 37.9077
      vertex -142.106 100.376 40.7778
    endloop
  endfacet
  facet normal -0.956932 0.290313 0
    outer loop
      vertex -142.106 100.376 40.7778
      vertex -141.898 101.064 40.7778
      vertex -141.898 101.064 37.9077
    endloop
  endfacet
  facet normal -0.881938 0.471366 0
    outer loop
      vertex -141.558 101.699 37.9077
      vertex -141.898 101.064 37.9077
      vertex -141.898 101.064 40.7778
    endloop
  endfacet
  facet normal -0.881938 0.471366 0
    outer loop
      vertex -141.898 101.064 40.7778
      vertex -141.558 101.699 40.7778
      vertex -141.558 101.699 37.9077
    endloop
  endfacet
  facet normal -0.772998 0.634409 0
    outer loop
      vertex -141.102 102.255 37.9077
      vertex -141.558 101.699 37.9077
      vertex -141.558 101.699 40.7778
    endloop
  endfacet
  facet normal -0.772998 0.634409 0
    outer loop
      vertex -141.558 101.699 40.7778
      vertex -141.102 102.255 40.7778
      vertex -141.102 102.255 37.9077
    endloop
  endfacet
  facet normal -0.634388 0.773015 0
    outer loop
      vertex -140.545 102.712 37.9077
      vertex -141.102 102.255 37.9077
      vertex -141.102 102.255 40.7778
    endloop
  endfacet
  facet normal -0.634388 0.773015 0
    outer loop
      vertex -141.102 102.255 40.7778
      vertex -140.545 102.712 40.7778
      vertex -140.545 102.712 37.9077
    endloop
  endfacet
  facet normal -0.471395 0.881922 0
    outer loop
      vertex -139.911 103.051 37.9077
      vertex -140.545 102.712 37.9077
      vertex -140.545 102.712 40.7778
    endloop
  endfacet
  facet normal -0.471395 0.881922 0
    outer loop
      vertex -140.545 102.712 40.7778
      vertex -139.911 103.051 40.7778
      vertex -139.911 103.051 37.9077
    endloop
  endfacet
  facet normal -0.290295 0.956937 0
    outer loop
      vertex -139.222 103.26 37.9077
      vertex -139.911 103.051 37.9077
      vertex -139.911 103.051 40.7778
    endloop
  endfacet
  facet normal -0.290295 0.956937 0
    outer loop
      vertex -139.911 103.051 40.7778
      vertex -139.222 103.26 40.7778
      vertex -139.222 103.26 37.9077
    endloop
  endfacet
  facet normal -0.0979922 0.995187 0
    outer loop
      vertex -138.506 103.331 37.9077
      vertex -139.222 103.26 37.9077
      vertex -139.222 103.26 40.7778
    endloop
  endfacet
  facet normal -0.0979922 0.995187 0
    outer loop
      vertex -139.222 103.26 40.7778
      vertex -138.506 103.331 40.7778
      vertex -138.506 103.331 37.9077
    endloop
  endfacet
  facet normal 0.0980069 0.995186 0
    outer loop
      vertex -137.789 103.26 37.9077
      vertex -138.506 103.331 37.9077
      vertex -138.506 103.331 40.7778
    endloop
  endfacet
  facet normal 0.0980069 0.995186 0
    outer loop
      vertex -138.506 103.331 40.7778
      vertex -137.789 103.26 40.7778
      vertex -137.789 103.26 37.9077
    endloop
  endfacet
  facet normal 0.290262 0.956947 0
    outer loop
      vertex -137.101 103.051 37.9077
      vertex -137.789 103.26 37.9077
      vertex -137.789 103.26 40.7778
    endloop
  endfacet
  facet normal 0.290262 0.956947 0
    outer loop
      vertex -137.789 103.26 40.7778
      vertex -137.101 103.051 40.7778
      vertex -137.101 103.051 37.9077
    endloop
  endfacet
  facet normal 0.471395 0.881922 0
    outer loop
      vertex -136.466 102.712 37.9077
      vertex -137.101 103.051 37.9077
      vertex -137.101 103.051 40.7778
    endloop
  endfacet
  facet normal 0.471395 0.881922 0
    outer loop
      vertex -137.101 103.051 40.7778
      vertex -136.466 102.712 40.7778
      vertex -136.466 102.712 37.9077
    endloop
  endfacet
  facet normal 0.634386 0.773017 0
    outer loop
      vertex -135.91 102.255 37.9077
      vertex -136.466 102.712 37.9077
      vertex -136.466 102.712 40.7778
    endloop
  endfacet
  facet normal 0.634386 0.773017 0
    outer loop
      vertex -136.466 102.712 40.7778
      vertex -135.91 102.255 40.7778
      vertex -135.91 102.255 37.9077
    endloop
  endfacet
  facet normal 0.773037 0.634361 0
    outer loop
      vertex -135.453 101.699 37.9077
      vertex -135.91 102.255 37.9077
      vertex -135.91 102.255 40.7778
    endloop
  endfacet
  facet normal 0.773037 0.634361 0
    outer loop
      vertex -135.91 102.255 40.7778
      vertex -135.453 101.699 40.7778
      vertex -135.453 101.699 37.9077
    endloop
  endfacet
  facet normal 0.881911 0.471416 0
    outer loop
      vertex -135.114 101.064 37.9077
      vertex -135.453 101.699 37.9077
      vertex -135.453 101.699 40.7778
    endloop
  endfacet
  facet normal 0.881911 0.471416 0
    outer loop
      vertex -135.453 101.699 40.7778
      vertex -135.114 101.064 40.7778
      vertex -135.114 101.064 37.9077
    endloop
  endfacet
  facet normal 0.956944 0.290274 0
    outer loop
      vertex -134.905 100.376 37.9077
      vertex -135.114 101.064 37.9077
      vertex -135.114 101.064 40.7778
    endloop
  endfacet
  facet normal 0.956944 0.290274 0
    outer loop
      vertex -135.114 101.064 40.7778
      vertex -134.905 100.376 40.7778
      vertex -134.905 100.376 37.9077
    endloop
  endfacet
  facet normal 0.995187 0.0979943 0
    outer loop
      vertex -134.834 99.6593 37.9077
      vertex -134.905 100.376 37.9077
      vertex -134.905 100.376 40.7778
    endloop
  endfacet
  facet normal 0.995187 0.0979943 0
    outer loop
      vertex -134.905 100.376 40.7778
      vertex -134.834 99.6593 40.7778
      vertex -134.834 99.6593 37.9077
    endloop
  endfacet
  facet normal 0 0 1
    outer loop
      vertex -138.75 100.885 40.7778
      vertex -138.506 100.909 40.7778
      vertex -138.506 103.331 40.7778
    endloop
  endfacet
  facet normal 0 0 1
    outer loop
      vertex -138.506 103.331 40.7778
      vertex -139.222 103.26 40.7778
      vertex -139.911 103.051 40.7778
    endloop
  endfacet
  facet normal 0 0 1
    outer loop
      vertex -139.911 103.051 40.7778
      vertex -140.545 102.712 40.7778
      vertex -141.102 102.255 40.7778
    endloop
  endfacet
  facet normal 0 0 1
    outer loop
      vertex -141.102 102.255 40.7778
      vertex -141.558 101.699 40.7778
      vertex -141.898 101.064 40.7778
    endloop
  endfacet
  facet normal 0 0 1
    outer loop
      vertex -141.898 101.064 40.7778
      vertex -142.106 100.376 40.7778
      vertex -142.177 99.6593 40.7778
    endloop
  endfacet
  facet normal 0 0 1
    outer loop
      vertex -142.177 99.6593 40.7778
      vertex -142.106 98.9431 40.7778
      vertex -141.898 98.2544 40.7778
    endloop
  endfacet
  facet normal 0 0 1
    outer loop
      vertex -141.898 98.2544 40.7778
      vertex -141.558 97.6196 40.7778
      vertex -141.102 97.0633 40.7778
    endloop
  endfacet
  facet normal 0 0 1
    outer loop
      vertex -141.102 97.0633 40.7778
      vertex -140.545 96.6067 40.7778
      vertex -139.911 96.2675 40.7778
    endloop
  endfacet
  facet normal 0 0 1
    outer loop
      vertex -139.911 96.2675 40.7778
      vertex -139.222 96.0585 40.7778
      vertex -138.506 95.988 40.7778
    endloop
  endfacet
  facet normal 0 0 1
    outer loop
      vertex -138.506 95.988 40.7778
      vertex -137.789 96.0586 40.7778
      vertex -138.506 98.4093 40.7778
    endloop
  endfacet
  facet normal 0 -0 1
    outer loop
      vertex -138.506 95.988 40.7778
      vertex -138.506 98.4093 40.7778
      vertex -138.75 98.4333 40.7778
    endloop
  endfacet
  facet normal 0 0 1
    outer loop
      vertex -141.102 97.0633 40.7778
      vertex -139.911 96.2675 40.7778
      vertex -138.506 95.988 40.7778
    endloop
  endfacet
  facet normal 0 0 1
    outer loop
      vertex -142.177 99.6593 40.7778
      vertex -141.898 98.2544 40.7778
      vertex -141.102 97.0633 40.7778
    endloop
  endfacet
  facet normal 0 0 1
    outer loop
      vertex -141.102 102.255 40.7778
      vertex -141.898 101.064 40.7778
      vertex -142.177 99.6593 40.7778
    endloop
  endfacet
  facet normal 0 0 1
    outer loop
      vertex -138.506 103.331 40.7778
      vertex -139.911 103.051 40.7778
      vertex -141.102 102.255 40.7778
    endloop
  endfacet
  facet normal 0 0 1
    outer loop
      vertex -138.984 100.814 40.7778
      vertex -138.75 100.885 40.7778
      vertex -138.506 103.331 40.7778
    endloop
  endfacet
  facet normal 0 0 1
    outer loop
      vertex -139.2 100.699 40.7778
      vertex -138.984 100.814 40.7778
      vertex -138.506 103.331 40.7778
    endloop
  endfacet
  facet normal 0 0 1
    outer loop
      vertex -138.506 103.331 40.7778
      vertex -141.102 102.255 40.7778
      vertex -142.177 99.6593 40.7778
    endloop
  endfacet
  facet normal 0 0 1
    outer loop
      vertex -142.177 99.6593 40.7778
      vertex -141.102 97.0633 40.7778
      vertex -138.506 95.988 40.7778
    endloop
  endfacet
  facet normal 0 0 1
    outer loop
      vertex -138.506 95.988 40.7778
      vertex -138.75 98.4333 40.7778
      vertex -138.984 98.5045 40.7778
    endloop
  endfacet
  facet normal 0 0 1
    outer loop
      vertex -138.506 95.988 40.7778
      vertex -138.984 98.5045 40.7778
      vertex -139.2 98.62 40.7778
    endloop
  endfacet
  facet normal 0 -0 1
    outer loop
      vertex -139.2 100.699 40.7778
      vertex -138.506 103.331 40.7778
      vertex -142.177 99.6593 40.7778
    endloop
  endfacet
  facet normal 0 -0 1
    outer loop
      vertex -139.39 100.543 40.7778
      vertex -139.2 100.699 40.7778
      vertex -142.177 99.6593 40.7778
    endloop
  endfacet
  facet normal 0 0 1
    outer loop
      vertex -142.177 99.6593 40.7778
      vertex -138.506 95.988 40.7778
      vertex -139.2 98.62 40.7778
    endloop
  endfacet
  facet normal 0 0 1
    outer loop
      vertex -142.177 99.6593 40.7778
      vertex -139.2 98.62 40.7778
      vertex -139.39 98.7755 40.7778
    endloop
  endfacet
  facet normal 0 -0 1
    outer loop
      vertex -139.545 100.354 40.7778
      vertex -139.39 100.543 40.7778
      vertex -142.177 99.6593 40.7778
    endloop
  endfacet
  facet normal 0 -0 1
    outer loop
      vertex -139.661 100.138 40.7778
      vertex -139.545 100.354 40.7778
      vertex -142.177 99.6593 40.7778
    endloop
  endfacet
  facet normal 0 0 1
    outer loop
      vertex -142.177 99.6593 40.7778
      vertex -139.39 98.7755 40.7778
      vertex -139.545 98.9649 40.7778
    endloop
  endfacet
  facet normal 0 0 1
    outer loop
      vertex -142.177 99.6593 40.7778
      vertex -139.545 98.9649 40.7778
      vertex -139.661 99.181 40.7778
    endloop
  endfacet
  facet normal 0 -0 1
    outer loop
      vertex -139.732 99.9032 40.7778
      vertex -139.661 100.138 40.7778
      vertex -142.177 99.6593 40.7778
    endloop
  endfacet
  facet normal 0 -0 1
    outer loop
      vertex -139.756 99.6593 40.7778
      vertex -139.732 99.9032 40.7778
      vertex -142.177 99.6593 40.7778
    endloop
  endfacet
  facet normal 0 0 1
    outer loop
      vertex -142.177 99.6593 40.7778
      vertex -139.661 99.181 40.7778
      vertex -139.732 99.4155 40.7778
    endloop
  endfacet
  facet normal -0 0 1
    outer loop
      vertex -142.177 99.6593 40.7778
      vertex -139.732 99.4155 40.7778
      vertex -139.756 99.6593 40.7778
    endloop
  endfacet
  facet normal 0 0 1
    outer loop
      vertex -138.262 98.4333 40.7778
      vertex -138.506 98.4093 40.7778
      vertex -137.789 96.0586 40.7778
    endloop
  endfacet
  facet normal 0 0 1
    outer loop
      vertex -137.789 96.0586 40.7778
      vertex -137.101 96.2675 40.7778
      vertex -136.466 96.6067 40.7778
    endloop
  endfacet
  facet normal 0 0 1
    outer loop
      vertex -136.466 96.6067 40.7778
      vertex -135.91 97.0633 40.7778
      vertex -135.453 97.6196 40.7778
    endloop
  endfacet
  facet normal 0 0 1
    outer loop
      vertex -135.453 97.6196 40.7778
      vertex -135.114 98.2544 40.7778
      vertex -134.905 98.9431 40.7778
    endloop
  endfacet
  facet normal 0 0 1
    outer loop
      vertex -134.905 98.9431 40.7778
      vertex -134.834 99.6593 40.7778
      vertex -134.905 100.376 40.7778
    endloop
  endfacet
  facet normal 0 0 1
    outer loop
      vertex -134.905 100.376 40.7778
      vertex -135.114 101.064 40.7778
      vertex -135.453 101.699 40.7778
    endloop
  endfacet
  facet normal 0 0 1
    outer loop
      vertex -135.453 101.699 40.7778
      vertex -135.91 102.255 40.7778
      vertex -136.466 102.712 40.7778
    endloop
  endfacet
  facet normal 0 0 1
    outer loop
      vertex -136.466 102.712 40.7778
      vertex -137.101 103.051 40.7778
      vertex -137.789 103.26 40.7778
    endloop
  endfacet
  facet normal 0 0 1
    outer loop
      vertex -137.789 103.26 40.7778
      vertex -138.506 103.331 40.7778
      vertex -138.506 100.909 40.7778
    endloop
  endfacet
  facet normal 0 0 1
    outer loop
      vertex -137.789 103.26 40.7778
      vertex -138.506 100.909 40.7778
      vertex -138.262 100.885 40.7778
    endloop
  endfacet
  facet normal 0 0 1
    outer loop
      vertex -135.453 101.699 40.7778
      vertex -136.466 102.712 40.7778
      vertex -137.789 103.26 40.7778
    endloop
  endfacet
  facet normal 0 -0 1
    outer loop
      vertex -134.905 98.9431 40.7778
      vertex -134.905 100.376 40.7778
      vertex -135.453 101.699 40.7778
    endloop
  endfacet
  facet normal 0 0 1
    outer loop
      vertex -136.466 96.6067 40.7778
      vertex -135.453 97.6196 40.7778
      vertex -134.905 98.9431 40.7778
    endloop
  endfacet
  facet normal 0 0 1
    outer loop
      vertex -138.262 98.4333 40.7778
      vertex -137.789 96.0586 40.7778
      vertex -136.466 96.6067 40.7778
    endloop
  endfacet
  facet normal 0 0 1
    outer loop
      vertex -138.027 98.5045 40.7778
      vertex -138.262 98.4333 40.7778
      vertex -136.466 96.6067 40.7778
    endloop
  endfacet
  facet normal 0 0 1
    outer loop
      vertex -136.466 96.6067 40.7778
      vertex -134.905 98.9431 40.7778
      vertex -135.453 101.699 40.7778
    endloop
  endfacet
  facet normal 0 0 1
    outer loop
      vertex -135.453 101.699 40.7778
      vertex -137.789 103.26 40.7778
      vertex -138.262 100.885 40.7778
    endloop
  endfacet
  facet normal 0 0 1
    outer loop
      vertex -135.453 101.699 40.7778
      vertex -138.262 100.885 40.7778
      vertex -138.027 100.814 40.7778
    endloop
  endfacet
  facet normal 0 0 1
    outer loop
      vertex -137.811 98.62 40.7778
      vertex -138.027 98.5045 40.7778
      vertex -136.466 96.6067 40.7778
    endloop
  endfacet
  facet normal 0 0 1
    outer loop
      vertex -137.622 98.7755 40.7778
      vertex -137.811 98.62 40.7778
      vertex -136.466 96.6067 40.7778
    endloop
  endfacet
  facet normal 0 0 1
    outer loop
      vertex -135.453 101.699 40.7778
      vertex -138.027 100.814 40.7778
      vertex -137.811 100.699 40.7778
    endloop
  endfacet
  facet normal 0 0 1
    outer loop
      vertex -135.453 101.699 40.7778
      vertex -137.811 100.699 40.7778
      vertex -137.622 100.543 40.7778
    endloop
  endfacet
  facet normal 0 0 1
    outer loop
      vertex -137.466 98.9649 40.7778
      vertex -137.622 98.7755 40.7778
      vertex -136.466 96.6067 40.7778
    endloop
  endfacet
  facet normal 0 0 1
    outer loop
      vertex -137.351 99.181 40.7778
      vertex -137.466 98.9649 40.7778
      vertex -136.466 96.6067 40.7778
    endloop
  endfacet
  facet normal 0 0 1
    outer loop
      vertex -135.453 101.699 40.7778
      vertex -137.622 100.543 40.7778
      vertex -137.466 100.354 40.7778
    endloop
  endfacet
  facet normal 0 0 1
    outer loop
      vertex -135.453 101.699 40.7778
      vertex -137.466 100.354 40.7778
      vertex -137.351 100.138 40.7778
    endloop
  endfacet
  facet normal -0 0 1
    outer loop
      vertex -137.351 99.181 40.7778
      vertex -136.466 96.6067 40.7778
      vertex -135.453 101.699 40.7778
    endloop
  endfacet
  facet normal -0 0 1
    outer loop
      vertex -137.28 99.4155 40.7778
      vertex -137.351 99.181 40.7778
      vertex -135.453 101.699 40.7778
    endloop
  endfacet
  facet normal 0 0 1
    outer loop
      vertex -135.453 101.699 40.7778
      vertex -137.351 100.138 40.7778
      vertex -137.28 99.9032 40.7778
    endloop
  endfacet
  facet normal -0 0 1
    outer loop
      vertex -137.256 99.6593 40.7778
      vertex -137.28 99.4155 40.7778
      vertex -135.453 101.699 40.7778
    endloop
  endfacet
  facet normal -0 0 1
    outer loop
      vertex -137.28 99.9032 40.7778
      vertex -137.256 99.6593 40.7778
      vertex -135.453 101.699 40.7778
    endloop
  endfacet
  facet normal 0.995185 -0.0980147 0
    outer loop
      vertex -139.756 99.6593 17.2209
      vertex -139.732 99.9032 17.2209
      vertex -139.732 99.9032 40.7778
    endloop
  endfacet
  facet normal 0.995185 -0.0980116 -3.17431e-08
    outer loop
      vertex -139.732 99.9032 40.7778
      vertex -139.756 99.6593 40.7778
      vertex -139.756 99.6593 17.2209
    endloop
  endfacet
  facet normal 0.995185 0.0980116 3.17431e-08
    outer loop
      vertex -139.732 99.4155 17.2209
      vertex -139.756 99.6593 17.2209
      vertex -139.756 99.6593 40.7778
    endloop
  endfacet
  facet normal 0.995185 0.0980147 0
    outer loop
      vertex -139.756 99.6593 40.7778
      vertex -139.732 99.4155 40.7778
      vertex -139.732 99.4155 17.2209
    endloop
  endfacet
  facet normal 0.95694 -0.290286 -2.82045e-07
    outer loop
      vertex -139.732 99.9032 17.2209
      vertex -139.661 100.138 17.2209
      vertex -139.661 100.138 40.7778
    endloop
  endfacet
  facet normal 0.956932 -0.290312 0
    outer loop
      vertex -139.661 100.138 40.7778
      vertex -139.732 99.9032 40.7778
      vertex -139.732 99.9032 17.2209
    endloop
  endfacet
  facet normal 0.956932 0.290312 0
    outer loop
      vertex -139.661 99.181 17.2209
      vertex -139.732 99.4155 17.2209
      vertex -139.732 99.4155 40.7778
    endloop
  endfacet
  facet normal 0.956932 0.290312 0
    outer loop
      vertex -139.732 99.4155 40.7778
      vertex -139.661 99.181 40.7778
      vertex -139.661 99.181 17.2209
    endloop
  endfacet
  facet normal 0.881915 -0.471409 -1.52676e-07
    outer loop
      vertex -139.661 100.138 17.2209
      vertex -139.545 100.354 17.2209
      vertex -139.545 100.354 40.7778
    endloop
  endfacet
  facet normal 0.881929 -0.471383 -4.58002e-07
    outer loop
      vertex -139.545 100.354 40.7778
      vertex -139.661 100.138 40.7778
      vertex -139.661 100.138 17.2209
    endloop
  endfacet
  facet normal 0.881929 0.471383 0
    outer loop
      vertex -139.545 98.9649 17.2209
      vertex -139.661 99.181 17.2209
      vertex -139.661 99.181 40.7778
    endloop
  endfacet
  facet normal 0.881935 0.47137 1.52663e-07
    outer loop
      vertex -139.661 99.181 40.7778
      vertex -139.545 98.9649 40.7778
      vertex -139.545 98.9649 17.2209
    endloop
  endfacet
  facet normal 0.773008 -0.634397 -2.05463e-07
    outer loop
      vertex -139.545 100.354 17.2209
      vertex -139.39 100.543 17.2209
      vertex -139.39 100.543 40.7778
    endloop
  endfacet
  facet normal 0.773008 -0.634397 -2.05463e-07
    outer loop
      vertex -139.39 100.543 40.7778
      vertex -139.545 100.354 40.7778
      vertex -139.545 100.354 17.2209
    endloop
  endfacet
  facet normal 0.773008 0.634397 2.05463e-07
    outer loop
      vertex -139.39 98.7755 17.2209
      vertex -139.545 98.9649 17.2209
      vertex -139.545 98.9649 40.7778
    endloop
  endfacet
  facet normal 0.773008 0.634397 2.05463e-07
    outer loop
      vertex -139.545 98.9649 40.7778
      vertex -139.39 98.7755 40.7778
      vertex -139.39 98.7755 17.2209
    endloop
  endfacet
  facet normal 0.634378 -0.773023 0
    outer loop
      vertex -139.39 100.543 17.2209
      vertex -139.2 100.699 17.2209
      vertex -139.2 100.699 40.7778
    endloop
  endfacet
  facet normal 0.634397 -0.773008 -2.50355e-07
    outer loop
      vertex -139.2 100.699 40.7778
      vertex -139.39 100.543 40.7778
      vertex -139.39 100.543 17.2209
    endloop
  endfacet
  facet normal 0.634397 0.773008 2.50355e-07
    outer loop
      vertex -139.2 98.62 17.2209
      vertex -139.39 98.7755 17.2209
      vertex -139.39 98.7755 40.7778
    endloop
  endfacet
  facet normal 0.634378 0.773023 0
    outer loop
      vertex -139.39 98.7755 40.7778
      vertex -139.2 98.62 40.7778
      vertex -139.2 98.62 17.2209
    endloop
  endfacet
  facet normal 0.471383 -0.881929 0
    outer loop
      vertex -139.2 100.699 17.2209
      vertex -138.984 100.814 17.2209
      vertex -138.984 100.814 40.7778
    endloop
  endfacet
  facet normal 0.471383 -0.881929 0
    outer loop
      vertex -138.984 100.814 40.7778
      vertex -139.2 100.699 40.7778
      vertex -139.2 100.699 17.2209
    endloop
  endfacet
  facet normal 0.471435 0.881901 0
    outer loop
      vertex -138.984 98.5045 17.2209
      vertex -139.2 98.62 17.2209
      vertex -139.2 98.62 40.7778
    endloop
  endfacet
  facet normal 0.471435 0.881901 0
    outer loop
      vertex -139.2 98.62 40.7778
      vertex -138.984 98.5045 40.7778
      vertex -138.984 98.5045 17.2209
    endloop
  endfacet
  facet normal 0.29034 -0.956924 -3.0992e-07
    outer loop
      vertex -138.984 100.814 17.2209
      vertex -138.75 100.885 17.2209
      vertex -138.75 100.885 40.7778
    endloop
  endfacet
  facet normal 0.290312 -0.956932 0
    outer loop
      vertex -138.75 100.885 40.7778
      vertex -138.984 100.814 40.7778
      vertex -138.984 100.814 17.2209
    endloop
  endfacet
  facet normal 0.290277 0.956943 0
    outer loop
      vertex -138.75 98.4334 17.2209
      vertex -138.984 98.5045 17.2209
      vertex -138.984 98.5045 40.7778
    endloop
  endfacet
  facet normal 0.290305 0.956934 3.09923e-07
    outer loop
      vertex -138.984 98.5045 40.7778
      vertex -138.75 98.4333 40.7778
      vertex -138.75 98.4334 17.2209
    endloop
  endfacet
  facet normal 0.0980116 -0.995185 0
    outer loop
      vertex -138.75 100.885 17.2209
      vertex -138.506 100.909 17.2209
      vertex -138.506 100.909 40.7778
    endloop
  endfacet
  facet normal 0.0980424 -0.995182 -3.22311e-07
    outer loop
      vertex -138.506 100.909 40.7778
      vertex -138.75 100.885 40.7778
      vertex -138.75 100.885 17.2209
    endloop
  endfacet
  facet normal 0.0980424 0.995182 3.22311e-07
    outer loop
      vertex -138.506 98.4093 17.2209
      vertex -138.75 98.4334 17.2209
      vertex -138.75 98.4333 40.7778
    endloop
  endfacet
  facet normal 0.0980116 0.995185 0
    outer loop
      vertex -138.75 98.4333 40.7778
      vertex -138.506 98.4093 40.7778
      vertex -138.506 98.4093 17.2209
    endloop
  endfacet
  facet normal -0.0980177 -0.995185 -3.22312e-07
    outer loop
      vertex -138.506 100.909 17.2209
      vertex -138.262 100.885 17.2209
      vertex -138.262 100.885 40.7778
    endloop
  endfacet
  facet normal -0.0980485 -0.995182 0
    outer loop
      vertex -138.262 100.885 40.7778
      vertex -138.506 100.909 40.7778
      vertex -138.506 100.909 17.2209
    endloop
  endfacet
  facet normal -0.0980485 0.995182 0
    outer loop
      vertex -138.262 98.4334 17.2209
      vertex -138.506 98.4093 17.2209
      vertex -138.506 98.4093 40.7778
    endloop
  endfacet
  facet normal -0.0980177 0.995185 3.22312e-07
    outer loop
      vertex -138.506 98.4093 40.7778
      vertex -138.262 98.4333 40.7778
      vertex -138.262 98.4334 17.2209
    endloop
  endfacet
  facet normal -0.290323 -0.956929 0
    outer loop
      vertex -138.262 100.885 17.2209
      vertex -138.027 100.814 17.2209
      vertex -138.027 100.814 40.7778
    endloop
  endfacet
  facet normal -0.290294 -0.956937 -3.09924e-07
    outer loop
      vertex -138.027 100.814 40.7778
      vertex -138.262 100.885 40.7778
      vertex -138.262 100.885 17.2209
    endloop
  endfacet
  facet normal -0.290294 0.956937 3.09924e-07
    outer loop
      vertex -138.027 98.5045 17.2209
      vertex -138.262 98.4334 17.2209
      vertex -138.262 98.4333 40.7778
    endloop
  endfacet
  facet normal -0.290323 0.956929 0
    outer loop
      vertex -138.262 98.4333 40.7778
      vertex -138.027 98.5045 40.7778
      vertex -138.027 98.5045 17.2209
    endloop
  endfacet
  facet normal -0.471383 -0.881929 0
    outer loop
      vertex -138.027 100.814 17.2209
      vertex -137.811 100.699 17.2209
      vertex -137.811 100.699 40.7778
    endloop
  endfacet
  facet normal -0.471383 -0.881929 0
    outer loop
      vertex -137.811 100.699 40.7778
      vertex -138.027 100.814 40.7778
      vertex -138.027 100.814 17.2209
    endloop
  endfacet
  facet normal -0.471383 0.881929 0
    outer loop
      vertex -137.811 98.62 17.2209
      vertex -138.027 98.5045 17.2209
      vertex -138.027 98.5045 40.7778
    endloop
  endfacet
  facet normal -0.471383 0.881929 0
    outer loop
      vertex -138.027 98.5045 40.7778
      vertex -137.811 98.62 40.7778
      vertex -137.811 98.62 17.2209
    endloop
  endfacet
  facet normal -0.634378 -0.773023 -2.5036e-07
    outer loop
      vertex -137.811 100.699 17.2209
      vertex -137.622 100.543 17.2209
      vertex -137.622 100.543 40.7778
    endloop
  endfacet
  facet normal -0.634397 -0.773008 0
    outer loop
      vertex -137.622 100.543 40.7778
      vertex -137.811 100.699 40.7778
      vertex -137.811 100.699 17.2209
    endloop
  endfacet
  facet normal -0.634397 0.773008 0
    outer loop
      vertex -137.622 98.7755 17.2209
      vertex -137.811 98.62 17.2209
      vertex -137.811 98.62 40.7778
    endloop
  endfacet
  facet normal -0.634378 0.773023 2.5036e-07
    outer loop
      vertex -137.811 98.62 40.7778
      vertex -137.622 98.7755 40.7778
      vertex -137.622 98.7755 17.2209
    endloop
  endfacet
  facet normal -0.773008 -0.634397 -2.05463e-07
    outer loop
      vertex -137.622 100.543 17.2209
      vertex -137.466 100.354 17.2209
      vertex -137.466 100.354 40.7778
    endloop
  endfacet
  facet normal -0.773008 -0.634397 -2.05463e-07
    outer loop
      vertex -137.466 100.354 40.7778
      vertex -137.622 100.543 40.7778
      vertex -137.622 100.543 17.2209
    endloop
  endfacet
  facet normal -0.773008 0.634397 2.05463e-07
    outer loop
      vertex -137.466 98.9649 17.2209
      vertex -137.622 98.7755 17.2209
      vertex -137.622 98.7755 40.7778
    endloop
  endfacet
  facet normal -0.773008 0.634397 2.05463e-07
    outer loop
      vertex -137.622 98.7755 40.7778
      vertex -137.466 98.9649 40.7778
      vertex -137.466 98.9649 17.2209
    endloop
  endfacet
  facet normal -0.881915 -0.471409 -4.58027e-07
    outer loop
      vertex -137.466 100.354 17.2209
      vertex -137.351 100.138 17.2209
      vertex -137.351 100.138 40.7778
    endloop
  endfacet
  facet normal -0.881929 -0.471383 -1.52667e-07
    outer loop
      vertex -137.351 100.138 40.7778
      vertex -137.466 100.354 40.7778
      vertex -137.466 100.354 17.2209
    endloop
  endfacet
  facet normal -0.881929 0.471383 1.52667e-07
    outer loop
      vertex -137.351 99.181 17.2209
      vertex -137.466 98.9649 17.2209
      vertex -137.466 98.9649 40.7778
    endloop
  endfacet
  facet normal -0.881922 0.471396 3.05343e-07
    outer loop
      vertex -137.466 98.9649 40.7778
      vertex -137.351 99.181 40.7778
      vertex -137.351 99.181 17.2209
    endloop
  endfacet
  facet normal -0.95694 -0.290286 0
    outer loop
      vertex -137.351 100.138 17.2209
      vertex -137.28 99.9032 17.2209
      vertex -137.28 99.9032 40.7778
    endloop
  endfacet
  facet normal -0.956932 -0.290312 -2.82071e-07
    outer loop
      vertex -137.28 99.9032 40.7778
      vertex -137.351 100.138 40.7778
      vertex -137.351 100.138 17.2209
    endloop
  endfacet
  facet normal -0.956932 0.290312 1.88047e-07
    outer loop
      vertex -137.28 99.4155 17.2209
      vertex -137.351 99.181 17.2209
      vertex -137.351 99.181 40.7778
    endloop
  endfacet
  facet normal -0.956937 0.290294 0
    outer loop
      vertex -137.351 99.181 40.7778
      vertex -137.28 99.4155 40.7778
      vertex -137.28 99.4155 17.2209
    endloop
  endfacet
  facet normal -0.995185 -0.0980147 -3.17441e-08
    outer loop
      vertex -137.28 99.9032 17.2209
      vertex -137.256 99.6593 17.2209
      vertex -137.256 99.6593 40.7778
    endloop
  endfacet
  facet normal -0.995185 -0.0980116 0
    outer loop
      vertex -137.256 99.6593 40.7778
      vertex -137.28 99.9032 40.7778
      vertex -137.28 99.9032 17.2209
    endloop
  endfacet
  facet normal -0.995185 0.0980116 0
    outer loop
      vertex -137.256 99.6593 17.2209
      vertex -137.28 99.4155 17.2209
      vertex -137.28 99.4155 40.7778
    endloop
  endfacet
  facet normal -0.995185 0.0980147 3.17441e-08
    outer loop
      vertex -137.28 99.4155 40.7778
      vertex -137.256 99.6593 40.7778
      vertex -137.256 99.6593 17.2209
    endloop
  endfacet
endsolid OpenSCAD_Model
